{
	"Version": 3,
	"FileReferences": {
		"Moc": "boy.moc3",
		"Textures": [
			"boy.2048/texture_00.png",
			"boy.2048/texture_01.png",
			"boy.2048/texture_02.png"
		]
	},
	"Groups": [
		{
			"Target": "Parameter",
			"Name": "EyeBlink",
			"Ids": []
		},
		{
			"Target": "Parameter",
			"Name": "LipSync",
			"Ids": []
		}
	]
}