{
	"Version": 3,
	"Meta": {
		"Duration": 3.2,
		"Fps": 30.0,
		"Loop": true,
		"AreBeziersRestricted": true,
		"CurveCount": 89,
		"TotalSegmentCount": 167,
		"TotalPointCount": 506,
		"UserDataCount": 0,
		"TotalUserDataSize": 0
	},
	"Curves": [
		{
			"Target": "Parameter",
			"Id": "ParamAngleX",
			"Segments": [
				0,
				0,
				1,
				0.467,
				0,
				0.933,
				0,
				1.4,
				0,
				1,
				1.967,
				0,
				2.533,
				0,
				3.1,
				0,
				1,
				3.133,
				0,
				3.167,
				0,
				3.2,
				0
			]
		},
		{
			"Target": "Parameter",
			"Id": "ParamAngleY",
			"Segments": [
				0,
				0,
				1,
				0.222,
				3.776,
				0.444,
				8,
				0.667,
				8,
				1,
				0.933,
				8,
				1.2,
				-6,
				1.467,
				-6,
				1,
				1.656,
				-6,
				1.844,
				9,
				2.033,
				9,
				1,
				2.389,
				9,
				2.744,
				-0.927,
				3.1,
				-0.927,
				1,
				3.133,
				-0.927,
				3.167,
				-0.753,
				3.2,
				-0.405
			]
		},
		{
			"Target": "Parameter",
			"Id": "ParamAngleZ",
			"Segments": [
				0,
				0,
				1,
				0.278,
				5.721,
				0.556,
				13,
				0.833,
				13,
				1,
				1.167,
				13,
				1.5,
				-1.462,
				1.833,
				-7,
				1,
				2.289,
				-13.467,
				2.744,
				-7.256,
				3.2,
				-0.495
			]
		},
		{
			"Target": "Parameter",
			"Id": "ParamEyeLOpen",
			"Segments": [
				0,
				1,
				1,
				0.378,
				1,
				0.756,
				1,
				1.133,
				1,
				1,
				1.167,
				1,
				1.2,
				0,
				1.233,
				0,
				1,
				1.244,
				0,
				1.256,
				0,
				1.267,
				0,
				1,
				1.344,
				0,
				1.422,
				1,
				1.5,
				1,
				1,
				1.889,
				1,
				2.278,
				1,
				2.667,
				1,
				1,
				2.7,
				1,
				2.733,
				0,
				2.767,
				0,
				1,
				2.778,
				0,
				2.789,
				0,
				2.8,
				0,
				1,
				2.878,
				0,
				2.956,
				1,
				3.033,
				1,
				1,
				3.089,
				1,
				3.144,
				1,
				3.2,
				1
			]
		},
		{
			"Target": "Parameter",
			"Id": "ParamEyeLSmile",
			"Segments": [
				0,
				0,
				1,
				0.378,
				0,
				0.756,
				0.5,
				1.133,
				0.5,
				1,
				1.167,
				0.5,
				1.2,
				0,
				1.233,
				0,
				1,
				1.244,
				0,
				1.256,
				0,
				1.267,
				0,
				1,
				1.344,
				0,
				1.422,
				0.5,
				1.5,
				0.5,
				1,
				1.889,
				0.5,
				2.278,
				0.5,
				2.667,
				0.5,
				1,
				2.7,
				0.5,
				2.733,
				0,
				2.767,
				0,
				1,
				2.778,
				0,
				2.789,
				0,
				2.8,
				0,
				1,
				2.878,
				0,
				2.956,
				0.5,
				3.033,
				0.5,
				1,
				3.089,
				0.5,
				3.144,
				0.153,
				3.2,
				0.037
			]
		},
		{
			"Target": "Parameter",
			"Id": "ParamEyeLForm",
			"Segments": [
				0,
				0,
				1,
				1.067,
				0,
				2.133,
				0,
				3.2,
				0
			]
		},
		{
			"Target": "Parameter",
			"Id": "ParamEyeROpen",
			"Segments": [
				0,
				1,
				1,
				0.378,
				1,
				0.756,
				1,
				1.133,
				1,
				1,
				1.167,
				1,
				1.2,
				0,
				1.233,
				0,
				1,
				1.244,
				0,
				1.256,
				0,
				1.267,
				0,
				1,
				1.344,
				0,
				1.422,
				1,
				1.5,
				1,
				1,
				1.889,
				1,
				2.278,
				1,
				2.667,
				1,
				1,
				2.7,
				1,
				2.733,
				0,
				2.767,
				0,
				1,
				2.778,
				0,
				2.789,
				0,
				2.8,
				0,
				1,
				2.878,
				0,
				2.956,
				1,
				3.033,
				1,
				1,
				3.089,
				1,
				3.144,
				1,
				3.2,
				1
			]
		},
		{
			"Target": "Parameter",
			"Id": "ParamEyeRSmile",
			"Segments": [
				0,
				0,
				1,
				0.378,
				0,
				0.756,
				0.5,
				1.133,
				0.5,
				1,
				1.167,
				0.5,
				1.2,
				0,
				1.233,
				0,
				1,
				1.244,
				0,
				1.256,
				0,
				1.267,
				0,
				1,
				1.344,
				0,
				1.422,
				0.5,
				1.5,
				0.5,
				1,
				1.889,
				0.5,
				2.278,
				0.5,
				2.667,
				0.5,
				1,
				2.7,
				0.5,
				2.733,
				0,
				2.767,
				0,
				1,
				2.778,
				0,
				2.789,
				0,
				2.8,
				0,
				1,
				2.878,
				0,
				2.956,
				0.5,
				3.033,
				0.5,
				1,
				3.089,
				0.5,
				3.144,
				0.153,
				3.2,
				0.037
			]
		},
		{
			"Target": "Parameter",
			"Id": "ParamEyeRForm",
			"Segments": [
				0,
				0,
				1,
				1.067,
				0,
				2.133,
				0,
				3.2,
				0
			]
		},
		{
			"Target": "Parameter",
			"Id": "ParamEyeBallX",
			"Segments": [
				0,
				0,
				1,
				1.067,
				0,
				2.133,
				0,
				3.2,
				0
			]
		},
		{
			"Target": "Parameter",
			"Id": "ParamEyeBallY",
			"Segments": [
				0,
				0,
				1,
				1.067,
				0,
				2.133,
				0,
				3.2,
				0
			]
		},
		{
			"Target": "Parameter",
			"Id": "ParamEyeBallExpand",
			"Segments": [
				0,
				0.7,
				1,
				1.067,
				0.7,
				2.133,
				0.7,
				3.2,
				0.7
			]
		},
		{
			"Target": "Parameter",
			"Id": "ParamBrowLX",
			"Segments": [
				0,
				0,
				1,
				1.067,
				0,
				2.133,
				0,
				3.2,
				0
			]
		},
		{
			"Target": "Parameter",
			"Id": "ParamBrowLY",
			"Segments": [
				0,
				0,
				1,
				1.067,
				0,
				2.133,
				0,
				3.2,
				0
			]
		},
		{
			"Target": "Parameter",
			"Id": "ParamBrowRX",
			"Segments": [
				0,
				0,
				1,
				1.067,
				0,
				2.133,
				0,
				3.2,
				0
			]
		},
		{
			"Target": "Parameter",
			"Id": "ParamBrowRY",
			"Segments": [
				0,
				0,
				1,
				1.067,
				0,
				2.133,
				0,
				3.2,
				0
			]
		},
		{
			"Target": "Parameter",
			"Id": "ParamBrowLAngle",
			"Segments": [
				0,
				0,
				1,
				1.067,
				0,
				2.133,
				0,
				3.2,
				0
			]
		},
		{
			"Target": "Parameter",
			"Id": "ParamBrowRAngle",
			"Segments": [
				0,
				0,
				1,
				1.067,
				0,
				2.133,
				0,
				3.2,
				0
			]
		},
		{
			"Target": "Parameter",
			"Id": "ParamBrowLForm",
			"Segments": [
				0,
				0,
				1,
				1.067,
				0,
				2.133,
				0,
				3.2,
				0
			]
		},
		{
			"Target": "Parameter",
			"Id": "ParamBrowLShapeMemory",
			"Segments": [
				0,
				0,
				1,
				1.067,
				0,
				2.133,
				0,
				3.2,
				0
			]
		},
		{
			"Target": "Parameter",
			"Id": "ParamBrowRForm",
			"Segments": [
				0,
				0,
				1,
				1.067,
				0,
				2.133,
				0,
				3.2,
				0
			]
		},
		{
			"Target": "Parameter",
			"Id": "ParamBrowRShapeMemory",
			"Segments": [
				0,
				0,
				1,
				1.067,
				0,
				2.133,
				0,
				3.2,
				0
			]
		},
		{
			"Target": "Parameter",
			"Id": "ParamMouthForm",
			"Segments": [
				0,
				0,
				1,
				1.067,
				0,
				2.133,
				0,
				3.2,
				0
			]
		},
		{
			"Target": "Parameter",
			"Id": "ParamMouthOpenY",
			"Segments": [
				0,
				0,
				1,
				1.067,
				0,
				2.133,
				0,
				3.2,
				0
			]
		},
		{
			"Target": "Parameter",
			"Id": "ParamCheek",
			"Segments": [
				0,
				0,
				1,
				1.067,
				0,
				2.133,
				0,
				3.2,
				0
			]
		},
		{
			"Target": "Parameter",
			"Id": "ParamBreath",
			"Segments": [
				0,
				0,
				1,
				0.289,
				0,
				0.578,
				0.5,
				0.867,
				0.5,
				1,
				1.067,
				0.5,
				1.267,
				0,
				1.467,
				0,
				1,
				1.644,
				0,
				1.822,
				0.5,
				2,
				0.5,
				1,
				2.367,
				0.5,
				2.733,
				0,
				3.1,
				0,
				1,
				3.133,
				0,
				3.167,
				0,
				3.2,
				0
			]
		},
		{
			"Target": "Parameter",
			"Id": "ParamBodyExpand",
			"Segments": [
				0,
				0,
				1,
				0.289,
				-0.049,
				0.578,
				-0.1,
				0.867,
				-0.1,
				1,
				1.244,
				-0.1,
				1.622,
				0.1,
				2,
				0.1,
				1,
				2.4,
				0.1,
				2.8,
				0.051,
				3.2,
				0.004
			]
		},
		{
			"Target": "Parameter",
			"Id": "ParamShoulderL",
			"Segments": [
				0,
				0,
				1,
				1.067,
				0,
				2.133,
				0,
				3.2,
				0
			]
		},
		{
			"Target": "Parameter",
			"Id": "ParamShoulderR",
			"Segments": [
				0,
				0,
				1,
				1.067,
				0,
				2.133,
				0,
				3.2,
				0
			]
		},
		{
			"Target": "Parameter",
			"Id": "ParamBodyAngleX",
			"Segments": [
				0,
				0,
				1,
				0.278,
				4.531,
				0.556,
				10,
				0.833,
				10,
				1,
				1.356,
				10,
				1.878,
				-10,
				2.4,
				-10,
				1,
				2.667,
				-10,
				2.933,
				-9.81,
				3.2,
				-1.13
			]
		},
		{
			"Target": "Parameter",
			"Id": "ParamBodyAngleY",
			"Segments": [
				0,
				0,
				1,
				0.256,
				0,
				0.511,
				0,
				0.767,
				0,
				1,
				1,
				0,
				1.233,
				-6,
				1.467,
				-6,
				1,
				1.667,
				-6,
				1.867,
				0,
				2.067,
				0,
				1,
				2.411,
				0,
				2.756,
				0,
				3.1,
				0,
				1,
				3.133,
				0,
				3.167,
				0,
				3.2,
				0
			]
		},
		{
			"Target": "Parameter",
			"Id": "ParamBodyAngleZ",
			"Segments": [
				0,
				0,
				1,
				0.289,
				0,
				0.578,
				-2,
				0.867,
				-2,
				1,
				1.244,
				-2,
				1.622,
				0,
				2,
				0,
				1,
				2.367,
				0,
				2.733,
				0,
				3.1,
				0,
				1,
				3.133,
				0,
				3.167,
				0,
				3.2,
				0
			]
		},
		{
			"Target": "Parameter",
			"Id": "ParamArmChange",
			"Segments": [
				0,
				0,
				1,
				1.067,
				0,
				2.133,
				0,
				3.2,
				0
			]
		},
		{
			"Target": "Parameter",
			"Id": "ParamArmAngleL00_01_02",
			"Segments": [
				0,
				0.6,
				1,
				0.256,
				0.789,
				0.511,
				1,
				0.767,
				1,
				1,
				1,
				1,
				1.233,
				0.6,
				1.467,
				0.6,
				1,
				1.722,
				0.6,
				1.978,
				1,
				2.233,
				1,
				1,
				2.522,
				1,
				2.811,
				0.6,
				3.1,
				0.6,
				0,
				3.2,
				0.6
			]
		},
		{
			"Target": "Parameter",
			"Id": "ParamArmAngleL03",
			"Segments": [
				0,
				0,
				1,
				1.067,
				0,
				2.133,
				0,
				3.2,
				0
			]
		},
		{
			"Target": "Parameter",
			"Id": "ParamHandR03",
			"Segments": [
				0,
				0,
				0,
				3.2,
				0
			]
		},
		{
			"Target": "Parameter",
			"Id": "ParamArmAngleL04",
			"Segments": [
				0,
				0,
				1,
				1.067,
				0,
				2.133,
				0,
				3.2,
				0
			]
		},
		{
			"Target": "Parameter",
			"Id": "ParamHandChangeL00_02",
			"Segments": [
				0,
				1,
				1,
				1.067,
				1,
				2.133,
				1,
				3.2,
				1
			]
		},
		{
			"Target": "Parameter",
			"Id": "ParamArmAngleR00_02",
			"Segments": [
				0,
				0.3,
				1,
				0.256,
				0.439,
				0.511,
				0.6,
				0.767,
				0.6,
				1,
				1,
				0.6,
				1.233,
				0.33,
				1.467,
				0.33,
				1,
				1.722,
				0.33,
				1.978,
				1,
				2.233,
				1,
				1,
				2.556,
				1,
				2.878,
				0.346,
				3.2,
				0.302
			]
		},
		{
			"Target": "Parameter",
			"Id": "ParamArmAngleR03",
			"Segments": [
				0,
				0,
				1,
				1.067,
				0,
				2.133,
				0,
				3.2,
				0
			]
		},
		{
			"Target": "Parameter",
			"Id": "ParamArmAngleR04",
			"Segments": [
				0,
				0,
				1,
				1.067,
				0,
				2.133,
				0,
				3.2,
				0
			]
		},
		{
			"Target": "Parameter",
			"Id": "ParamHandChangeR00_02",
			"Segments": [
				0,
				1,
				1,
				1.067,
				1,
				2.133,
				1,
				3.2,
				1
			]
		},
		{
			"Target": "Parameter",
			"Id": "ParamHairFront",
			"Segments": [
				0,
				0,
				1,
				0.256,
				0,
				0.511,
				0,
				0.767,
				0,
				1,
				0.967,
				0,
				1.167,
				-0.5,
				1.367,
				-0.5,
				1,
				1.633,
				-0.5,
				1.9,
				0.3,
				2.167,
				0.3,
				1,
				2.367,
				0.3,
				2.567,
				-0.2,
				2.767,
				-0.2,
				1,
				2.911,
				-0.2,
				3.056,
				-0.028,
				3.2,
				-0.003
			]
		},
		{
			"Target": "Parameter",
			"Id": "ParamHairSide",
			"Segments": [
				0,
				0,
				1,
				0.256,
				0,
				0.511,
				0,
				0.767,
				0,
				1,
				0.967,
				0,
				1.167,
				-0.5,
				1.367,
				-0.5,
				1,
				1.633,
				-0.5,
				1.9,
				0.3,
				2.167,
				0.3,
				1,
				2.367,
				0.3,
				2.567,
				-0.2,
				2.767,
				-0.2,
				1,
				2.911,
				-0.2,
				3.056,
				-0.028,
				3.2,
				-0.003
			]
		},
		{
			"Target": "Parameter",
			"Id": "ParamHairBack",
			"Segments": [
				0,
				0,
				1,
				0.256,
				0,
				0.511,
				0,
				0.767,
				0,
				1,
				0.967,
				0,
				1.167,
				-0.5,
				1.367,
				-0.5,
				1,
				1.633,
				-0.5,
				1.9,
				0.3,
				2.167,
				0.3,
				1,
				2.367,
				0.3,
				2.567,
				-0.2,
				2.767,
				-0.2,
				1,
				2.911,
				-0.2,
				3.056,
				-0.028,
				3.2,
				-0.003
			]
		},
		{
			"Target": "Parameter",
			"Id": "ParamHairHuwa",
			"Segments": [
				0,
				0,
				1,
				0.256,
				-2.9,
				0.511,
				-6.206,
				0.767,
				-6.206,
				1,
				0.889,
				-6.206,
				1.011,
				5.98,
				1.133,
				5.98,
				1,
				1.389,
				5.98,
				1.644,
				-3.897,
				1.9,
				-3.897,
				1,
				2.133,
				-3.897,
				2.367,
				3.82,
				2.6,
				3.82,
				1,
				2.8,
				3.82,
				3,
				2.193,
				3.2,
				0.315
			]
		},
		{
			"Target": "Parameter",
			"Id": "ParamFootL",
			"Segments": [
				0,
				0,
				1,
				1.067,
				0,
				2.133,
				0,
				3.2,
				0
			]
		},
		{
			"Target": "Parameter",
			"Id": "ParamFootR",
			"Segments": [
				0,
				0,
				1,
				1.067,
				0,
				2.133,
				0,
				3.2,
				0
			]
		},
		{
			"Target": "Parameter",
			"Id": "ParamSkirt",
			"Segments": [
				0,
				0,
				1,
				1.067,
				0,
				2.133,
				0,
				3.2,
				0
			]
		},
		{
			"Target": "PartOpacity",
			"Id": "PartPng",
			"Segments": [
				0,
				1,
				0,
				3.2,
				1
			]
		},
		{
			"Target": "PartOpacity",
			"Id": "PartArmPose04",
			"Segments": [
				0,
				1,
				0,
				3.2,
				1
			]
		},
		{
			"Target": "PartOpacity",
			"Id": "Part16",
			"Segments": [
				0,
				1,
				0,
				3.2,
				1
			]
		},
		{
			"Target": "PartOpacity",
			"Id": "Part17",
			"Segments": [
				0,
				1,
				0,
				3.2,
				1
			]
		},
		{
			"Target": "PartOpacity",
			"Id": "PartArmPose03",
			"Segments": [
				0,
				1,
				0,
				3.2,
				1
			]
		},
		{
			"Target": "PartOpacity",
			"Id": "Part",
			"Segments": [
				0,
				1,
				0,
				3.2,
				1
			]
		},
		{
			"Target": "PartOpacity",
			"Id": "Part2",
			"Segments": [
				0,
				1,
				0,
				3.2,
				1
			]
		},
		{
			"Target": "PartOpacity",
			"Id": "PartCore",
			"Segments": [
				0,
				1,
				0,
				3.2,
				1
			]
		},
		{
			"Target": "PartOpacity",
			"Id": "Part5",
			"Segments": [
				0,
				1,
				0,
				3.2,
				1
			]
		},
		{
			"Target": "PartOpacity",
			"Id": "Part6",
			"Segments": [
				0,
				1,
				0,
				3.2,
				1
			]
		},
		{
			"Target": "PartOpacity",
			"Id": "Part19",
			"Segments": [
				0,
				1,
				0,
				3.2,
				1
			]
		},
		{
			"Target": "PartOpacity",
			"Id": "Part20",
			"Segments": [
				0,
				1,
				0,
				3.2,
				1
			]
		},
		{
			"Target": "PartOpacity",
			"Id": "Part7",
			"Segments": [
				0,
				1,
				0,
				3.2,
				1
			]
		},
		{
			"Target": "PartOpacity",
			"Id": "Part8",
			"Segments": [
				0,
				1,
				0,
				3.2,
				1
			]
		},
		{
			"Target": "PartOpacity",
			"Id": "PartHairSide",
			"Segments": [
				0,
				1,
				0,
				3.2,
				1
			]
		},
		{
			"Target": "PartOpacity",
			"Id": "PartHairFront",
			"Segments": [
				0,
				1,
				0,
				3.2,
				1
			]
		},
		{
			"Target": "PartOpacity",
			"Id": "Part10",
			"Segments": [
				0,
				1,
				0,
				3.2,
				1
			]
		},
		{
			"Target": "PartOpacity",
			"Id": "Part11",
			"Segments": [
				0,
				1,
				0,
				3.2,
				1
			]
		},
		{
			"Target": "PartOpacity",
			"Id": "PartEyeL",
			"Segments": [
				0,
				1,
				0,
				3.2,
				1
			]
		},
		{
			"Target": "PartOpacity",
			"Id": "PartEyeR",
			"Segments": [
				0,
				1,
				0,
				3.2,
				1
			]
		},
		{
			"Target": "PartOpacity",
			"Id": "Part15",
			"Segments": [
				0,
				1,
				0,
				3.2,
				1
			]
		},
		{
			"Target": "PartOpacity",
			"Id": "Part14",
			"Segments": [
				0,
				1,
				0,
				3.2,
				1
			]
		},
		{
			"Target": "PartOpacity",
			"Id": "PartHairFrontShadow",
			"Segments": [
				0,
				1,
				0,
				3.2,
				1
			]
		},
		{
			"Target": "PartOpacity",
			"Id": "PartBody",
			"Segments": [
				0,
				1,
				0,
				3.2,
				1
			]
		},
		{
			"Target": "PartOpacity",
			"Id": "PartUpperBody",
			"Segments": [
				0,
				1,
				0,
				3.2,
				1
			]
		},
		{
			"Target": "PartOpacity",
			"Id": "PartCoatL",
			"Segments": [
				0,
				1,
				0,
				3.2,
				1
			]
		},
		{
			"Target": "PartOpacity",
			"Id": "PartCoatR",
			"Segments": [
				0,
				1,
				0,
				3.2,
				1
			]
		},
		{
			"Target": "PartOpacity",
			"Id": "PartNeck",
			"Segments": [
				0,
				1,
				0,
				3.2,
				1
			]
		},
		{
			"Target": "PartOpacity",
			"Id": "PartSkirt",
			"Segments": [
				0,
				1,
				0,
				3.2,
				1
			]
		},
		{
			"Target": "PartOpacity",
			"Id": "Part18",
			"Segments": [
				0,
				1,
				0,
				3.2,
				1
			]
		},
		{
			"Target": "PartOpacity",
			"Id": "Part12",
			"Segments": [
				0,
				1,
				0,
				3.2,
				1
			]
		},
		{
			"Target": "PartOpacity",
			"Id": "Part42",
			"Segments": [
				0,
				1,
				0,
				3.2,
				1
			]
		},
		{
			"Target": "PartOpacity",
			"Id": "Part9",
			"Segments": [
				0,
				1,
				0,
				3.2,
				1
			]
		},
		{
			"Target": "PartOpacity",
			"Id": "Part22",
			"Segments": [
				0,
				1,
				0,
				3.2,
				1
			]
		},
		{
			"Target": "PartOpacity",
			"Id": "Part21",
			"Segments": [
				0,
				1,
				0,
				3.2,
				1
			]
		},
		{
			"Target": "PartOpacity",
			"Id": "Part13",
			"Segments": [
				0,
				1,
				0,
				3.2,
				1
			]
		},
		{
			"Target": "PartOpacity",
			"Id": "Part24",
			"Segments": [
				0,
				1,
				0,
				3.2,
				1
			]
		},
		{
			"Target": "PartOpacity",
			"Id": "Part23",
			"Segments": [
				0,
				1,
				0,
				3.2,
				1
			]
		},
		{
			"Target": "PartOpacity",
			"Id": "PartHairBack",
			"Segments": [
				0,
				1,
				0,
				3.2,
				1
			]
		},
		{
			"Target": "PartOpacity",
			"Id": "Part25",
			"Segments": [
				0,
				1,
				0,
				3.2,
				1
			]
		}
	]
}