{
	"Version": 3,
	"Meta": {
		"Duration": 4,
		"Fps": 30.0,
		"Loop": true,
		"AreBeziersRestricted": true,
		"CurveCount": 96,
		"TotalSegmentCount": 129,
		"TotalPointCount": 391,
		"UserDataCount": 0,
		"TotalUserDataSize": 0
	},
	"Curves": [
		{
			"Target": "Model",
			"Id": "Opacity",
			"Segments": [
				0,
				1,
				0,
				4,
				1
			]
		},
		{
			"Target": "Parameter",
			"Id": "ParamAngleX",
			"Segments": [
				0,
				0,
				1,
				1.333,
				0,
				2.667,
				0,
				4,
				0
			]
		},
		{
			"Target": "Parameter",
			"Id": "ParamAngleY",
			"Segments": [
				0,
				0,
				1,
				1.333,
				0,
				2.667,
				0,
				4,
				0
			]
		},
		{
			"Target": "Parameter",
			"Id": "ParamAngleZ",
			"Segments": [
				0,
				0,
				1,
				1.333,
				0,
				2.667,
				0,
				4,
				0
			]
		},
		{
			"Target": "Parameter",
			"Id": "ParamEyeLOpen",
			"Segments": [
				0,
				1,
				1,
				0.367,
				1,
				0.733,
				1,
				1.1,
				1,
				1,
				1.133,
				1,
				1.167,
				0,
				1.2,
				0,
				1,
				1.211,
				0,
				1.222,
				0,
				1.233,
				0,
				1,
				1.311,
				0,
				1.389,
				1,
				1.467,
				1,
				1,
				1.978,
				1,
				2.489,
				1,
				3,
				1,
				1,
				3.033,
				1,
				3.067,
				0,
				3.1,
				0,
				1,
				3.111,
				0,
				3.122,
				0,
				3.133,
				0,
				1,
				3.211,
				0,
				3.289,
				1,
				3.367,
				1,
				1,
				3.578,
				1,
				3.789,
				1,
				4,
				1
			]
		},
		{
			"Target": "Parameter",
			"Id": "ParamEyeLSmile",
			"Segments": [
				0,
				0.5,
				1,
				0.367,
				0.5,
				0.733,
				0.5,
				1.1,
				0.5,
				1,
				1.133,
				0.5,
				1.167,
				0,
				1.2,
				0,
				1,
				1.211,
				0,
				1.222,
				0,
				1.233,
				0,
				1,
				1.311,
				0,
				1.389,
				0.5,
				1.467,
				0.5,
				1,
				1.978,
				0.5,
				2.489,
				0.5,
				3,
				0.5,
				1,
				3.033,
				0.5,
				3.067,
				0,
				3.1,
				0,
				1,
				3.111,
				0,
				3.122,
				0,
				3.133,
				0,
				1,
				3.211,
				0,
				3.289,
				0.5,
				3.367,
				0.5,
				1,
				3.578,
				0.5,
				3.789,
				0.5,
				4,
				0.5
			]
		},
		{
			"Target": "Parameter",
			"Id": "ParamEyeLForm",
			"Segments": [
				0,
				0,
				1,
				1.333,
				0,
				2.667,
				0,
				4,
				0
			]
		},
		{
			"Target": "Parameter",
			"Id": "ParamEyeROpen",
			"Segments": [
				0,
				1,
				1,
				0.367,
				1,
				0.733,
				1,
				1.1,
				1,
				1,
				1.133,
				1,
				1.167,
				0,
				1.2,
				0,
				1,
				1.211,
				0,
				1.222,
				0,
				1.233,
				0,
				1,
				1.311,
				0,
				1.389,
				1,
				1.467,
				1,
				1,
				1.978,
				1,
				2.489,
				1,
				3,
				1,
				1,
				3.033,
				1,
				3.067,
				0,
				3.1,
				0,
				1,
				3.111,
				0,
				3.122,
				0,
				3.133,
				0,
				1,
				3.211,
				0,
				3.289,
				1,
				3.367,
				1,
				1,
				3.578,
				1,
				3.789,
				1,
				4,
				1
			]
		},
		{
			"Target": "Parameter",
			"Id": "ParamEyeRSmile",
			"Segments": [
				0,
				0.5,
				1,
				0.367,
				0.5,
				0.733,
				0.5,
				1.1,
				0.5,
				1,
				1.133,
				0.5,
				1.167,
				0,
				1.2,
				0,
				1,
				1.211,
				0,
				1.222,
				0,
				1.233,
				0,
				1,
				1.311,
				0,
				1.389,
				0.5,
				1.467,
				0.5,
				1,
				1.978,
				0.5,
				2.489,
				0.5,
				3,
				0.5,
				1,
				3.033,
				0.5,
				3.067,
				0,
				3.1,
				0,
				1,
				3.111,
				0,
				3.122,
				0,
				3.133,
				0,
				1,
				3.211,
				0,
				3.289,
				0.5,
				3.367,
				0.5,
				1,
				3.578,
				0.5,
				3.789,
				0.5,
				4,
				0.5
			]
		},
		{
			"Target": "Parameter",
			"Id": "ParamEyeRForm",
			"Segments": [
				0,
				0,
				1,
				1.333,
				0,
				2.667,
				0,
				4,
				0
			]
		},
		{
			"Target": "Parameter",
			"Id": "ParamEyeBallX",
			"Segments": [
				0,
				0,
				1,
				1.333,
				0,
				2.667,
				0,
				4,
				0
			]
		},
		{
			"Target": "Parameter",
			"Id": "ParamEyeBallY",
			"Segments": [
				0,
				0,
				1,
				1.333,
				0,
				2.667,
				0,
				4,
				0
			]
		},
		{
			"Target": "Parameter",
			"Id": "ParamEyeBallExpand",
			"Segments": [
				0,
				0.7,
				1,
				1.333,
				0.7,
				2.667,
				0.7,
				4,
				0.7
			]
		},
		{
			"Target": "Parameter",
			"Id": "ParamBrowLX",
			"Segments": [
				0,
				0.5,
				1,
				1.333,
				0.5,
				2.667,
				0.5,
				4,
				0.5
			]
		},
		{
			"Target": "Parameter",
			"Id": "ParamBrowLY",
			"Segments": [
				0,
				-0.1,
				1,
				1.333,
				-0.1,
				2.667,
				-0.1,
				4,
				-0.1
			]
		},
		{
			"Target": "Parameter",
			"Id": "ParamBrowRX",
			"Segments": [
				0,
				0.5,
				1,
				1.333,
				0.5,
				2.667,
				0.5,
				4,
				0.5
			]
		},
		{
			"Target": "Parameter",
			"Id": "ParamBrowRY",
			"Segments": [
				0,
				-0.2,
				1,
				1.333,
				-0.2,
				2.667,
				-0.2,
				4,
				-0.2
			]
		},
		{
			"Target": "Parameter",
			"Id": "ParamBrowLAngle",
			"Segments": [
				0,
				0.5,
				1,
				1.333,
				0.5,
				2.667,
				0.5,
				4,
				0.5
			]
		},
		{
			"Target": "Parameter",
			"Id": "ParamBrowRAngle",
			"Segments": [
				0,
				0.5,
				1,
				1.333,
				0.5,
				2.667,
				0.5,
				4,
				0.5
			]
		},
		{
			"Target": "Parameter",
			"Id": "ParamBrowLForm",
			"Segments": [
				0,
				0.5,
				1,
				1.333,
				0.5,
				2.667,
				0.5,
				4,
				0.5
			]
		},
		{
			"Target": "Parameter",
			"Id": "ParamBrowLShapeMemory",
			"Segments": [
				0,
				0,
				1,
				1.333,
				0,
				2.667,
				0,
				4,
				0
			]
		},
		{
			"Target": "Parameter",
			"Id": "ParamBrowRForm",
			"Segments": [
				0,
				0.5,
				1,
				1.333,
				0.5,
				2.667,
				0.5,
				4,
				0.5
			]
		},
		{
			"Target": "Parameter",
			"Id": "ParamBrowRShapeMemory",
			"Segments": [
				0,
				0,
				1,
				1.333,
				0,
				2.667,
				0,
				4,
				0
			]
		},
		{
			"Target": "Parameter",
			"Id": "ParamMouthForm",
			"Segments": [
				0,
				1,
				1,
				1.333,
				1,
				2.667,
				1,
				4,
				1
			]
		},
		{
			"Target": "Parameter",
			"Id": "ParamMouthOpenY",
			"Segments": [
				0,
				0,
				1,
				1.333,
				0,
				2.667,
				0,
				4,
				0
			]
		},
		{
			"Target": "Parameter",
			"Id": "ParamCheek",
			"Segments": [
				0,
				0,
				1,
				1.333,
				0,
				2.667,
				0,
				4,
				0
			]
		},
		{
			"Target": "Parameter",
			"Id": "ParamBreath",
			"Segments": [
				0,
				0,
				1,
				0.667,
				0,
				1.333,
				1,
				2,
				1,
				1,
				2.667,
				1,
				3.333,
				0,
				4,
				0
			]
		},
		{
			"Target": "Parameter",
			"Id": "ParamBodyExpand",
			"Segments": [
				0,
				0,
				1,
				1.333,
				0,
				2.667,
				0,
				4,
				0
			]
		},
		{
			"Target": "Parameter",
			"Id": "ParamShoulderL",
			"Segments": [
				0,
				0.5,
				1,
				1.333,
				0.5,
				2.667,
				0.5,
				4,
				0.5
			]
		},
		{
			"Target": "Parameter",
			"Id": "ParamShoulderR",
			"Segments": [
				0,
				0.5,
				1,
				1.333,
				0.5,
				2.667,
				0.5,
				4,
				0.5
			]
		},
		{
			"Target": "Parameter",
			"Id": "ParamBodyAngleX",
			"Segments": [
				0,
				6,
				1,
				1.333,
				6,
				2.667,
				6,
				4,
				6
			]
		},
		{
			"Target": "Parameter",
			"Id": "ParamBodyAngleY",
			"Segments": [
				0,
				0,
				1,
				1.333,
				0,
				2.667,
				0,
				4,
				0
			]
		},
		{
			"Target": "Parameter",
			"Id": "ParamBodyAngleZ",
			"Segments": [
				0,
				1,
				1,
				1.333,
				1,
				2.667,
				1,
				4,
				1
			]
		},
		{
			"Target": "Parameter",
			"Id": "ParamArmChange",
			"Segments": [
				0,
				1,
				1,
				1.333,
				1,
				2.667,
				1,
				4,
				1
			]
		},
		{
			"Target": "Parameter",
			"Id": "ParamArmAngleL00_01_02",
			"Segments": [
				0,
				0.5,
				1,
				1.333,
				0.5,
				2.667,
				0.5,
				4,
				0.5
			]
		},
		{
			"Target": "Parameter",
			"Id": "ParamArmAngleL03",
			"Segments": [
				0,
				0.2,
				1,
				1.333,
				0.2,
				2.667,
				0.2,
				4,
				0.2
			]
		},
		{
			"Target": "Parameter",
			"Id": "ParamHandR03",
			"Segments": [
				0,
				0,
				1,
				1.333,
				0,
				2.667,
				0,
				4,
				0
			]
		},
		{
			"Target": "Parameter",
			"Id": "ParamArmAngleL04",
			"Segments": [
				0,
				0,
				1,
				1.333,
				0,
				2.667,
				0,
				4,
				0
			]
		},
		{
			"Target": "Parameter",
			"Id": "ParamHandChangeL00_02",
			"Segments": [
				0,
				1,
				1,
				1.333,
				1,
				2.667,
				1,
				4,
				1
			]
		},
		{
			"Target": "Parameter",
			"Id": "ParamArmAngleR00_02",
			"Segments": [
				0,
				0.8,
				1,
				1.333,
				0.8,
				2.667,
				0.8,
				4,
				0.8
			]
		},
		{
			"Target": "Parameter",
			"Id": "ParamArmAngleR03",
			"Segments": [
				0,
				0,
				1,
				1.333,
				0,
				2.667,
				0,
				4,
				0
			]
		},
		{
			"Target": "Parameter",
			"Id": "ParamHandL03",
			"Segments": [
				0,
				0,
				1,
				1.333,
				0,
				2.667,
				0,
				4,
				0
			]
		},
		{
			"Target": "Parameter",
			"Id": "ParamArmAngleR04",
			"Segments": [
				0,
				0,
				1,
				1.333,
				0,
				2.667,
				0,
				4,
				0
			]
		},
		{
			"Target": "Parameter",
			"Id": "ParamHandChangeR00_02",
			"Segments": [
				0,
				1,
				1,
				1.333,
				1,
				2.667,
				1,
				4,
				1
			]
		},
		{
			"Target": "Parameter",
			"Id": "ParamHairFront",
			"Segments": [
				0,
				0.2,
				1,
				1.333,
				0.2,
				2.667,
				0.2,
				4,
				0.2
			]
		},
		{
			"Target": "Parameter",
			"Id": "ParamHairSide",
			"Segments": [
				0,
				0.2,
				1,
				1.333,
				0.2,
				2.667,
				0.2,
				4,
				0.2
			]
		},
		{
			"Target": "Parameter",
			"Id": "ParamHairBack",
			"Segments": [
				0,
				-0.5,
				1,
				1.333,
				-0.5,
				2.667,
				-0.5,
				4,
				-0.5
			]
		},
		{
			"Target": "Parameter",
			"Id": "ParamHairHuwa",
			"Segments": [
				0,
				20,
				1,
				1.333,
				20,
				2.667,
				20,
				4,
				20
			]
		},
		{
			"Target": "Parameter",
			"Id": "ParamFootL",
			"Segments": [
				0,
				0,
				1,
				1.333,
				0,
				2.667,
				0,
				4,
				0
			]
		},
		{
			"Target": "Parameter",
			"Id": "ParamFootR",
			"Segments": [
				0,
				0,
				1,
				1.333,
				0,
				2.667,
				0,
				4,
				0
			]
		},
		{
			"Target": "Parameter",
			"Id": "ParamSkirt",
			"Segments": [
				0,
				0,
				1,
				1.333,
				0,
				2.667,
				0,
				4,
				0
			]
		},
		{
			"Target": "PartOpacity",
			"Id": "__RootPart__",
			"Segments": [
				0,
				1,
				0,
				4,
				1
			]
		},
		{
			"Target": "PartOpacity",
			"Id": "PartPng",
			"Segments": [
				0,
				1,
				0,
				4,
				1
			]
		},
		{
			"Target": "PartOpacity",
			"Id": "PartArmPose04",
			"Segments": [
				0,
				1,
				0,
				4,
				1
			]
		},
		{
			"Target": "PartOpacity",
			"Id": "Part16",
			"Segments": [
				0,
				1,
				0,
				4,
				1
			]
		},
		{
			"Target": "PartOpacity",
			"Id": "Part17",
			"Segments": [
				0,
				1,
				0,
				4,
				1
			]
		},
		{
			"Target": "PartOpacity",
			"Id": "PartArmPose03",
			"Segments": [
				0,
				1,
				0,
				4,
				1
			]
		},
		{
			"Target": "PartOpacity",
			"Id": "Part",
			"Segments": [
				0,
				1,
				0,
				4,
				1
			]
		},
		{
			"Target": "PartOpacity",
			"Id": "Part2",
			"Segments": [
				0,
				1,
				0,
				4,
				1
			]
		},
		{
			"Target": "PartOpacity",
			"Id": "PartCore",
			"Segments": [
				0,
				1,
				0,
				4,
				1
			]
		},
		{
			"Target": "PartOpacity",
			"Id": "Part5",
			"Segments": [
				0,
				1,
				0,
				4,
				1
			]
		},
		{
			"Target": "PartOpacity",
			"Id": "Part6",
			"Segments": [
				0,
				1,
				0,
				4,
				1
			]
		},
		{
			"Target": "PartOpacity",
			"Id": "Part19",
			"Segments": [
				0,
				1,
				0,
				4,
				1
			]
		},
		{
			"Target": "PartOpacity",
			"Id": "Part20",
			"Segments": [
				0,
				1,
				0,
				4,
				1
			]
		},
		{
			"Target": "PartOpacity",
			"Id": "Part7",
			"Segments": [
				0,
				1,
				0,
				4,
				1
			]
		},
		{
			"Target": "PartOpacity",
			"Id": "Part8",
			"Segments": [
				0,
				1,
				0,
				4,
				1
			]
		},
		{
			"Target": "PartOpacity",
			"Id": "PartHairSide",
			"Segments": [
				0,
				1,
				0,
				4,
				1
			]
		},
		{
			"Target": "PartOpacity",
			"Id": "PartHairFront",
			"Segments": [
				0,
				1,
				0,
				4,
				1
			]
		},
		{
			"Target": "PartOpacity",
			"Id": "Part10",
			"Segments": [
				0,
				1,
				0,
				4,
				1
			]
		},
		{
			"Target": "PartOpacity",
			"Id": "Part11",
			"Segments": [
				0,
				1,
				0,
				4,
				1
			]
		},
		{
			"Target": "PartOpacity",
			"Id": "PartEyeL",
			"Segments": [
				0,
				1,
				0,
				4,
				1
			]
		},
		{
			"Target": "PartOpacity",
			"Id": "PartEyeR",
			"Segments": [
				0,
				1,
				0,
				4,
				1
			]
		},
		{
			"Target": "PartOpacity",
			"Id": "Part15",
			"Segments": [
				0,
				1,
				0,
				4,
				1
			]
		},
		{
			"Target": "PartOpacity",
			"Id": "Part14",
			"Segments": [
				0,
				1,
				0,
				4,
				1
			]
		},
		{
			"Target": "PartOpacity",
			"Id": "PartHairFrontShadow",
			"Segments": [
				0,
				1,
				0,
				4,
				1
			]
		},
		{
			"Target": "PartOpacity",
			"Id": "PartBody",
			"Segments": [
				0,
				1,
				0,
				4,
				1
			]
		},
		{
			"Target": "PartOpacity",
			"Id": "PartUpperBody",
			"Segments": [
				0,
				1,
				0,
				4,
				1
			]
		},
		{
			"Target": "PartOpacity",
			"Id": "PartCoatL",
			"Segments": [
				0,
				1,
				0,
				4,
				1
			]
		},
		{
			"Target": "PartOpacity",
			"Id": "PartCoatR",
			"Segments": [
				0,
				1,
				0,
				4,
				1
			]
		},
		{
			"Target": "PartOpacity",
			"Id": "PartNeck",
			"Segments": [
				0,
				1,
				0,
				4,
				1
			]
		},
		{
			"Target": "PartOpacity",
			"Id": "PartSkirt",
			"Segments": [
				0,
				1,
				0,
				4,
				1
			]
		},
		{
			"Target": "PartOpacity",
			"Id": "Part18",
			"Segments": [
				0,
				1,
				0,
				4,
				1
			]
		},
		{
			"Target": "PartOpacity",
			"Id": "Part12",
			"Segments": [
				0,
				1,
				0,
				4,
				1
			]
		},
		{
			"Target": "PartOpacity",
			"Id": "Part42",
			"Segments": [
				0,
				1,
				0,
				4,
				1
			]
		},
		{
			"Target": "PartOpacity",
			"Id": "Part9",
			"Segments": [
				0,
				1,
				0,
				4,
				1
			]
		},
		{
			"Target": "PartOpacity",
			"Id": "Part22",
			"Segments": [
				0,
				1,
				0,
				4,
				1
			]
		},
		{
			"Target": "PartOpacity",
			"Id": "Part21",
			"Segments": [
				0,
				1,
				0,
				4,
				1
			]
		},
		{
			"Target": "PartOpacity",
			"Id": "Part13",
			"Segments": [
				0,
				1,
				0,
				4,
				1
			]
		},
		{
			"Target": "PartOpacity",
			"Id": "Part24",
			"Segments": [
				0,
				1,
				0,
				4,
				1
			]
		},
		{
			"Target": "PartOpacity",
			"Id": "Part23",
			"Segments": [
				0,
				1,
				0,
				4,
				1
			]
		},
		{
			"Target": "PartOpacity",
			"Id": "PartHairBack",
			"Segments": [
				0,
				1,
				0,
				4,
				1
			]
		},
		{
			"Target": "PartOpacity",
			"Id": "Part25",
			"Segments": [
				0,
				1,
				0,
				4,
				1
			]
		},
		{
			"Target": "PartOpacity",
			"Id": "PartFootR",
			"Segments": [
				0,
				1,
				0,
				4,
				1
			]
		},
		{
			"Target": "PartOpacity",
			"Id": "PartFootL",
			"Segments": [
				0,
				1,
				0,
				4,
				1
			]
		},
		{
			"Target": "PartOpacity",
			"Id": "PartKneeL",
			"Segments": [
				0,
				1,
				0,
				4,
				1
			]
		},
		{
			"Target": "PartOpacity",
			"Id": "PartKneeR",
			"Segments": [
				0,
				1,
				0,
				4,
				1
			]
		}
	]
}