{
	"Version": 3,
	"Meta": {
		"Duration": 1.533,
		"Fps": 30.0,
		"Loop": true,
		"AreBeziersRestricted": true,
		"CurveCount": 94,
		"TotalSegmentCount": 258,
		"TotalPointCount": 680,
		"UserDataCount": 0,
		"TotalUserDataSize": 0
	},
	"Curves": [
		{
			"Target": "Parameter",
			"Id": "ParamAngleX",
			"Segments": [
				0,
				0,
				1,
				0.089,
				0,
				0.178,
				-4,
				0.267,
				-4,
				1,
				0.411,
				-4,
				0.556,
				12,
				0.7,
				12,
				1,
				0.789,
				12,
				0.878,
				12,
				0.967,
				12,
				1,
				1.067,
				12,
				1.167,
				12,
				1.267,
				12,
				0,
				1.533,
				12
			]
		},
		{
			"Target": "Parameter",
			"Id": "ParamAngleY",
			"Segments": [
				0,
				0,
				1,
				0.089,
				0,
				0.178,
				-19,
				0.267,
				-19,
				1,
				0.411,
				-19,
				0.556,
				21,
				0.7,
				21,
				1,
				0.789,
				21,
				0.878,
				-30,
				0.967,
				-30,
				1,
				1.067,
				-30,
				1.167,
				-17,
				1.267,
				-17,
				0,
				1.533,
				-17
			]
		},
		{
			"Target": "Parameter",
			"Id": "ParamAngleZ",
			"Segments": [
				0,
				0,
				1,
				0.233,
				0,
				0.467,
				0,
				0.7,
				0,
				1,
				0.789,
				0,
				0.878,
				-20,
				0.967,
				-20,
				1,
				1.067,
				-20,
				1.167,
				-20,
				1.267,
				-20,
				0,
				1.533,
				-20
			]
		},
		{
			"Target": "Parameter",
			"Id": "ParamEyeLOpen",
			"Segments": [
				0,
				1,
				1,
				0.078,
				1,
				0.156,
				0,
				0.233,
				0,
				1,
				0.244,
				0,
				0.256,
				0,
				0.267,
				0,
				1,
				0.411,
				0,
				0.556,
				1,
				0.7,
				1,
				1,
				0.789,
				1,
				0.878,
				1,
				0.967,
				1,
				1,
				1.067,
				1,
				1.167,
				1,
				1.267,
				1,
				0,
				1.533,
				1
			]
		},
		{
			"Target": "Parameter",
			"Id": "ParamEyeLSmile",
			"Segments": [
				0,
				0,
				1,
				0.078,
				0,
				0.156,
				0,
				0.233,
				0,
				1,
				0.244,
				0,
				0.256,
				0,
				0.267,
				0,
				1,
				0.411,
				0,
				0.556,
				0,
				0.7,
				0,
				1,
				0.789,
				0,
				0.878,
				0,
				0.967,
				0,
				1,
				1.067,
				0,
				1.167,
				0,
				1.267,
				0,
				0,
				1.533,
				0
			]
		},
		{
			"Target": "Parameter",
			"Id": "ParamEyeLForm",
			"Segments": [
				0,
				0,
				1,
				0.233,
				0,
				0.467,
				1,
				0.7,
				1,
				1,
				0.789,
				1,
				0.878,
				1,
				0.967,
				1,
				1,
				1.067,
				1,
				1.167,
				1,
				1.267,
				1,
				0,
				1.533,
				1
			]
		},
		{
			"Target": "Parameter",
			"Id": "ParamEyeROpen",
			"Segments": [
				0,
				1,
				1,
				0.078,
				1,
				0.156,
				0,
				0.233,
				0,
				1,
				0.244,
				0,
				0.256,
				0,
				0.267,
				0,
				1,
				0.411,
				0,
				0.556,
				1,
				0.7,
				1,
				1,
				0.789,
				1,
				0.878,
				1,
				0.967,
				1,
				1,
				1.067,
				1,
				1.167,
				1,
				1.267,
				1,
				0,
				1.533,
				1
			]
		},
		{
			"Target": "Parameter",
			"Id": "ParamEyeRSmile",
			"Segments": [
				0,
				0,
				1,
				0.078,
				0,
				0.156,
				0,
				0.233,
				0,
				1,
				0.244,
				0,
				0.256,
				0,
				0.267,
				0,
				1,
				0.411,
				0,
				0.556,
				0,
				0.7,
				0,
				1,
				0.789,
				0,
				0.878,
				0,
				0.967,
				0,
				1,
				1.067,
				0,
				1.167,
				0,
				1.267,
				0,
				0,
				1.533,
				0
			]
		},
		{
			"Target": "Parameter",
			"Id": "ParamEyeRForm",
			"Segments": [
				0,
				0,
				1,
				0.233,
				0,
				0.467,
				1,
				0.7,
				1,
				1,
				0.789,
				1,
				0.878,
				1,
				0.967,
				1,
				1,
				1.067,
				1,
				1.167,
				1,
				1.267,
				1,
				0,
				1.533,
				1
			]
		},
		{
			"Target": "Parameter",
			"Id": "ParamEyeBallX",
			"Segments": [
				0,
				0,
				1,
				0.233,
				0,
				0.467,
				0,
				0.7,
				0,
				1,
				0.789,
				0,
				0.878,
				0,
				0.967,
				0,
				1,
				1.067,
				0,
				1.167,
				0,
				1.267,
				0,
				0,
				1.533,
				0
			]
		},
		{
			"Target": "Parameter",
			"Id": "ParamEyeBallY",
			"Segments": [
				0,
				0,
				1,
				0.233,
				0,
				0.467,
				0,
				0.7,
				0,
				1,
				0.789,
				0,
				0.878,
				1,
				0.967,
				1,
				1,
				1.067,
				1,
				1.167,
				1,
				1.267,
				1,
				0,
				1.533,
				1
			]
		},
		{
			"Target": "Parameter",
			"Id": "ParamEyeBallExpand",
			"Segments": [
				0,
				0.7,
				1,
				0.233,
				0.7,
				0.467,
				0.7,
				0.7,
				0.7,
				1,
				0.789,
				0.7,
				0.878,
				0.7,
				0.967,
				0.7,
				1,
				1.067,
				0.7,
				1.167,
				0.7,
				1.267,
				0.7,
				0,
				1.533,
				0.7
			]
		},
		{
			"Target": "Parameter",
			"Id": "ParamBrowLX",
			"Segments": [
				0,
				0,
				1,
				0.233,
				0,
				0.467,
				0,
				0.7,
				0,
				1,
				0.789,
				0,
				0.878,
				0,
				0.967,
				0,
				1,
				1.067,
				0,
				1.167,
				0,
				1.267,
				0,
				0,
				1.533,
				0
			]
		},
		{
			"Target": "Parameter",
			"Id": "ParamBrowLY",
			"Segments": [
				0,
				0,
				1,
				0.233,
				0,
				0.467,
				0.1,
				0.7,
				0.1,
				1,
				0.789,
				0.1,
				0.878,
				0.1,
				0.967,
				0.1,
				1,
				1.067,
				0.1,
				1.167,
				0.1,
				1.267,
				0.1,
				0,
				1.533,
				0.1
			]
		},
		{
			"Target": "Parameter",
			"Id": "ParamBrowRX",
			"Segments": [
				0,
				0,
				1,
				0.233,
				0,
				0.467,
				0,
				0.7,
				0,
				1,
				0.789,
				0,
				0.878,
				0,
				0.967,
				0,
				1,
				1.067,
				0,
				1.167,
				0,
				1.267,
				0,
				0,
				1.533,
				0
			]
		},
		{
			"Target": "Parameter",
			"Id": "ParamBrowRY",
			"Segments": [
				0,
				0,
				1,
				0.233,
				0,
				0.467,
				0.1,
				0.7,
				0.1,
				1,
				0.789,
				0.1,
				0.878,
				0.1,
				0.967,
				0.1,
				1,
				1.067,
				0.1,
				1.167,
				0.1,
				1.267,
				0.1,
				0,
				1.533,
				0.1
			]
		},
		{
			"Target": "Parameter",
			"Id": "ParamBrowLAngle",
			"Segments": [
				0,
				0,
				1,
				0.233,
				0,
				0.467,
				0,
				0.7,
				0,
				1,
				0.789,
				0,
				0.878,
				0,
				0.967,
				0,
				1,
				1.067,
				0,
				1.167,
				0,
				1.267,
				0,
				0,
				1.533,
				0
			]
		},
		{
			"Target": "Parameter",
			"Id": "ParamBrowRAngle",
			"Segments": [
				0,
				0,
				1,
				0.233,
				0,
				0.467,
				0,
				0.7,
				0,
				1,
				0.789,
				0,
				0.878,
				0,
				0.967,
				0,
				1,
				1.067,
				0,
				1.167,
				0,
				1.267,
				0,
				0,
				1.533,
				0
			]
		},
		{
			"Target": "Parameter",
			"Id": "ParamBrowLForm",
			"Segments": [
				0,
				0,
				1,
				0.233,
				0,
				0.467,
				-0.5,
				0.7,
				-0.5,
				1,
				0.789,
				-0.5,
				0.878,
				-0.5,
				0.967,
				-0.5,
				1,
				1.067,
				-0.5,
				1.167,
				-0.5,
				1.267,
				-0.5,
				0,
				1.533,
				-0.5
			]
		},
		{
			"Target": "Parameter",
			"Id": "ParamBrowLShapeMemory",
			"Segments": [
				0,
				0,
				1,
				0.233,
				0,
				0.467,
				0,
				0.7,
				0,
				1,
				0.789,
				0,
				0.878,
				0,
				0.967,
				0,
				1,
				1.067,
				0,
				1.167,
				0,
				1.267,
				0,
				0,
				1.533,
				0
			]
		},
		{
			"Target": "Parameter",
			"Id": "ParamBrowRForm",
			"Segments": [
				0,
				0,
				1,
				0.233,
				0,
				0.467,
				-0.5,
				0.7,
				-0.5,
				1,
				0.789,
				-0.5,
				0.878,
				-0.5,
				0.967,
				-0.5,
				1,
				1.067,
				-0.5,
				1.167,
				-0.5,
				1.267,
				-0.5,
				0,
				1.533,
				-0.5
			]
		},
		{
			"Target": "Parameter",
			"Id": "ParamBrowRShapeMemory",
			"Segments": [
				0,
				0,
				1,
				0.233,
				0,
				0.467,
				0,
				0.7,
				0,
				1,
				0.789,
				0,
				0.878,
				0,
				0.967,
				0,
				1,
				1.067,
				0,
				1.167,
				0,
				1.267,
				0,
				0,
				1.533,
				0
			]
		},
		{
			"Target": "Parameter",
			"Id": "ParamMouthForm",
			"Segments": [
				0,
				0,
				1,
				0.089,
				0,
				0.178,
				-1,
				0.267,
				-1,
				1,
				0.411,
				-1,
				0.556,
				-1,
				0.7,
				-1,
				1,
				0.789,
				-1,
				0.878,
				-0.6,
				0.967,
				-0.6,
				1,
				1.067,
				-0.6,
				1.167,
				-1,
				1.267,
				-1,
				0,
				1.533,
				-1
			]
		},
		{
			"Target": "Parameter",
			"Id": "ParamMouthOpenY",
			"Segments": [
				0,
				0,
				1,
				0.089,
				0,
				0.178,
				0,
				0.267,
				0,
				1,
				0.411,
				0,
				0.556,
				0,
				0.7,
				0,
				1,
				0.789,
				0,
				0.878,
				0.6,
				0.967,
				0.6,
				1,
				1.067,
				0.6,
				1.167,
				0,
				1.267,
				0,
				0,
				1.533,
				0
			]
		},
		{
			"Target": "Parameter",
			"Id": "ParamCheek",
			"Segments": [
				0,
				0,
				1,
				0.233,
				0,
				0.467,
				0,
				0.7,
				0,
				1,
				0.789,
				0,
				0.878,
				0,
				0.967,
				0,
				1,
				1.067,
				0,
				1.167,
				0,
				1.267,
				0,
				0,
				1.533,
				0
			]
		},
		{
			"Target": "Parameter",
			"Id": "ParamBreath",
			"Segments": [
				0,
				0,
				1,
				0.233,
				0,
				0.467,
				0,
				0.7,
				0,
				1,
				0.789,
				0,
				0.878,
				0,
				0.967,
				0,
				1,
				1.067,
				0,
				1.167,
				0,
				1.267,
				0,
				0,
				1.533,
				0
			]
		},
		{
			"Target": "Parameter",
			"Id": "ParamBodyExpand",
			"Segments": [
				0,
				0,
				1,
				0.233,
				0,
				0.467,
				0,
				0.7,
				0,
				1,
				0.789,
				0,
				0.878,
				0.3,
				0.967,
				0.3,
				1,
				1.067,
				0.3,
				1.167,
				0.1,
				1.267,
				0.1,
				0,
				1.533,
				0.1
			]
		},
		{
			"Target": "Parameter",
			"Id": "ParamShoulderL",
			"Segments": [
				0,
				0,
				1,
				0.233,
				0,
				0.467,
				0.6,
				0.7,
				0.6,
				1,
				0.789,
				0.6,
				0.878,
				-0.6,
				0.967,
				-0.6,
				1,
				1.067,
				-0.6,
				1.167,
				0,
				1.267,
				0,
				0,
				1.533,
				0
			]
		},
		{
			"Target": "Parameter",
			"Id": "ParamShoulderR",
			"Segments": [
				0,
				0,
				1,
				0.233,
				0,
				0.467,
				0.6,
				0.7,
				0.6,
				1,
				0.789,
				0.6,
				0.878,
				-0.6,
				0.967,
				-0.6,
				1,
				1.067,
				-0.6,
				1.167,
				0,
				1.267,
				0,
				0,
				1.533,
				0
			]
		},
		{
			"Target": "Parameter",
			"Id": "ParamBodyAngleX",
			"Segments": [
				0,
				0,
				1,
				0.089,
				0,
				0.178,
				3.92,
				0.267,
				6,
				1,
				0.411,
				9.379,
				0.556,
				10,
				0.7,
				10,
				1,
				0.789,
				10,
				0.878,
				10,
				0.967,
				10,
				1,
				1.067,
				10,
				1.167,
				10,
				1.267,
				10,
				0,
				1.533,
				10
			]
		},
		{
			"Target": "Parameter",
			"Id": "ParamBodyAngleY",
			"Segments": [
				0,
				0,
				1,
				0.089,
				0,
				0.178,
				-6,
				0.267,
				-6,
				1,
				0.411,
				-6,
				0.556,
				10,
				0.7,
				10,
				1,
				0.789,
				10,
				0.878,
				-10,
				0.967,
				-10,
				1,
				1.067,
				-10,
				1.167,
				-6,
				1.267,
				-6,
				0,
				1.533,
				-6
			]
		},
		{
			"Target": "Parameter",
			"Id": "ParamBodyAngleZ",
			"Segments": [
				0,
				0,
				1,
				0.233,
				0,
				0.467,
				2,
				0.7,
				2,
				1,
				0.789,
				2,
				0.878,
				0,
				0.967,
				0,
				1,
				1.067,
				0,
				1.167,
				0,
				1.267,
				0,
				0,
				1.533,
				0
			]
		},
		{
			"Target": "Parameter",
			"Id": "ParamArmChange",
			"Segments": [
				0,
				0,
				1,
				0.089,
				0,
				0.178,
				0,
				0.267,
				0,
				1,
				0.322,
				0,
				0.378,
				-1,
				0.433,
				-1,
				1,
				0.522,
				-1,
				0.611,
				-1,
				0.7,
				-1,
				1,
				0.789,
				-1,
				0.878,
				-1,
				0.967,
				-1,
				1,
				1.067,
				-1,
				1.167,
				-1,
				1.267,
				-1,
				0,
				1.533,
				-1
			]
		},
		{
			"Target": "Parameter",
			"Id": "ParamArmAngleL00_01_02",
			"Segments": [
				0,
				0.6,
				1,
				0.089,
				0.6,
				0.178,
				0.522,
				0.267,
				0.4,
				1,
				0.322,
				0.324,
				0.378,
				0.3,
				0.433,
				0.3,
				1,
				0.522,
				0.3,
				0.611,
				0.3,
				0.7,
				0.3,
				1,
				0.789,
				0.3,
				0.878,
				0.3,
				0.967,
				0.3,
				1,
				1.067,
				0.3,
				1.167,
				0.3,
				1.267,
				0.3,
				0,
				1.533,
				0.3
			]
		},
		{
			"Target": "Parameter",
			"Id": "ParamArmAngleL03",
			"Segments": [
				0,
				0,
				0,
				1.533,
				0
			]
		},
		{
			"Target": "Parameter",
			"Id": "ParamHandR03",
			"Segments": [
				0,
				0,
				0,
				1.533,
				0
			]
		},
		{
			"Target": "Parameter",
			"Id": "ParamArmAngleL04",
			"Segments": [
				0,
				0,
				1,
				0.089,
				0,
				0.178,
				0.5,
				0.267,
				0.5,
				1,
				0.322,
				0.5,
				0.378,
				0.117,
				0.433,
				0,
				1,
				0.522,
				-0.187,
				0.611,
				-0.311,
				0.7,
				-0.4,
				1,
				0.789,
				-0.489,
				0.878,
				-0.5,
				0.967,
				-0.5,
				1,
				1.067,
				-0.5,
				1.167,
				-0.5,
				1.267,
				-0.5,
				0,
				1.533,
				-0.5
			]
		},
		{
			"Target": "Parameter",
			"Id": "ParamHandChangeL00_02",
			"Segments": [
				0,
				1,
				1,
				0.144,
				1,
				0.289,
				1,
				0.433,
				1,
				1,
				0.522,
				1,
				0.611,
				1,
				0.7,
				1,
				1,
				0.789,
				1,
				0.878,
				1,
				0.967,
				1,
				1,
				1.067,
				1,
				1.167,
				1,
				1.267,
				1,
				0,
				1.533,
				1
			]
		},
		{
			"Target": "Parameter",
			"Id": "ParamArmAngleR00_02",
			"Segments": [
				0,
				0.3,
				1,
				0.089,
				0.3,
				0.178,
				-0.08,
				0.267,
				-0.4,
				1,
				0.322,
				-0.6,
				0.378,
				-0.6,
				0.433,
				-0.6,
				1,
				0.522,
				-0.6,
				0.611,
				-0.6,
				0.7,
				-0.6,
				1,
				0.789,
				-0.6,
				0.878,
				-0.6,
				0.967,
				-0.6,
				1,
				1.067,
				-0.6,
				1.167,
				-0.6,
				1.267,
				-0.6,
				0,
				1.533,
				-0.6
			]
		},
		{
			"Target": "Parameter",
			"Id": "ParamArmAngleR03",
			"Segments": [
				0,
				0,
				0,
				1.533,
				0
			]
		},
		{
			"Target": "Parameter",
			"Id": "ParamHandL03",
			"Segments": [
				0,
				0,
				0,
				1.533,
				0
			]
		},
		{
			"Target": "Parameter",
			"Id": "ParamArmAngleR04",
			"Segments": [
				0,
				0,
				1,
				0.089,
				0,
				0.178,
				-0.5,
				0.267,
				-0.5,
				1,
				0.322,
				-0.5,
				0.378,
				-0.243,
				0.433,
				0,
				1,
				0.522,
				0.389,
				0.611,
				0.5,
				0.7,
				0.5,
				1,
				0.789,
				0.5,
				0.878,
				0.4,
				0.967,
				0.4,
				1,
				1.067,
				0.4,
				1.167,
				0.4,
				1.267,
				0.4,
				0,
				1.533,
				0.4
			]
		},
		{
			"Target": "Parameter",
			"Id": "ParamHandChangeR00_02",
			"Segments": [
				0,
				1,
				1,
				0.144,
				1,
				0.289,
				1,
				0.433,
				1,
				1,
				0.522,
				1,
				0.611,
				1,
				0.7,
				1,
				1,
				0.789,
				1,
				0.878,
				1,
				0.967,
				1,
				1,
				1.067,
				1,
				1.167,
				1,
				1.267,
				1,
				0,
				1.533,
				1
			]
		},
		{
			"Target": "Parameter",
			"Id": "ParamHairFront",
			"Segments": [
				0,
				0,
				1,
				0.156,
				0,
				0.311,
				-0.4,
				0.467,
				-0.4,
				1,
				0.6,
				-0.4,
				0.733,
				0.3,
				0.867,
				0.3,
				1,
				1,
				0.3,
				1.133,
				0,
				1.267,
				0,
				0,
				1.533,
				0
			]
		},
		{
			"Target": "Parameter",
			"Id": "ParamHairSide",
			"Segments": [
				0,
				0,
				1,
				0.156,
				0,
				0.311,
				-0.4,
				0.467,
				-0.4,
				1,
				0.6,
				-0.4,
				0.733,
				0.3,
				0.867,
				0.3,
				1,
				1,
				0.3,
				1.133,
				0,
				1.267,
				0,
				0,
				1.533,
				0
			]
		},
		{
			"Target": "Parameter",
			"Id": "ParamHairBack",
			"Segments": [
				0,
				0,
				1,
				0.156,
				0,
				0.311,
				-0.4,
				0.467,
				-0.4,
				1,
				0.6,
				-0.4,
				0.733,
				0.3,
				0.867,
				0.3,
				1,
				1,
				0.3,
				1.133,
				0,
				1.267,
				0,
				0,
				1.533,
				0
			]
		},
		{
			"Target": "Parameter",
			"Id": "ParamHairHuwa",
			"Segments": [
				0,
				0,
				1,
				0.1,
				0,
				0.2,
				-16,
				0.3,
				-16,
				1,
				0.467,
				-16,
				0.633,
				30,
				0.8,
				30,
				1,
				0.889,
				30,
				0.978,
				-10,
				1.067,
				-10,
				0,
				1.533,
				-10
			]
		},
		{
			"Target": "Parameter",
			"Id": "ParamFootL",
			"Segments": [
				0,
				0,
				1,
				0.233,
				0,
				0.467,
				0,
				0.7,
				0,
				1,
				0.789,
				0,
				0.878,
				0,
				0.967,
				0,
				1,
				1.067,
				0,
				1.167,
				0,
				1.267,
				0,
				0,
				1.533,
				0
			]
		},
		{
			"Target": "Parameter",
			"Id": "ParamFootR",
			"Segments": [
				0,
				0,
				1,
				0.233,
				0,
				0.467,
				0,
				0.7,
				0,
				1,
				0.789,
				0,
				0.878,
				-0.3,
				0.967,
				-0.3,
				1,
				1.067,
				-0.3,
				1.167,
				-0.3,
				1.267,
				-0.3,
				0,
				1.533,
				-0.3
			]
		},
		{
			"Target": "Parameter",
			"Id": "ParamSkirt",
			"Segments": [
				0,
				0,
				1,
				0.233,
				0,
				0.467,
				0,
				0.7,
				0,
				1,
				0.789,
				0,
				0.878,
				0,
				0.967,
				0,
				1,
				1.067,
				0,
				1.167,
				0,
				1.267,
				0,
				0,
				1.533,
				0
			]
		},
		{
			"Target": "PartOpacity",
			"Id": "PartPng",
			"Segments": [
				0,
				1,
				0,
				1.533,
				1
			]
		},
		{
			"Target": "PartOpacity",
			"Id": "PartArmPose04",
			"Segments": [
				0,
				1,
				0,
				1.533,
				1
			]
		},
		{
			"Target": "PartOpacity",
			"Id": "Part16",
			"Segments": [
				0,
				1,
				0,
				1.533,
				1
			]
		},
		{
			"Target": "PartOpacity",
			"Id": "Part17",
			"Segments": [
				0,
				1,
				0,
				1.533,
				1
			]
		},
		{
			"Target": "PartOpacity",
			"Id": "PartArmPose03",
			"Segments": [
				0,
				1,
				0,
				1.533,
				1
			]
		},
		{
			"Target": "PartOpacity",
			"Id": "Part",
			"Segments": [
				0,
				1,
				0,
				1.533,
				1
			]
		},
		{
			"Target": "PartOpacity",
			"Id": "Part2",
			"Segments": [
				0,
				1,
				0,
				1.533,
				1
			]
		},
		{
			"Target": "PartOpacity",
			"Id": "PartCore",
			"Segments": [
				0,
				1,
				0,
				1.533,
				1
			]
		},
		{
			"Target": "PartOpacity",
			"Id": "Part5",
			"Segments": [
				0,
				1,
				0,
				1.533,
				1
			]
		},
		{
			"Target": "PartOpacity",
			"Id": "Part6",
			"Segments": [
				0,
				1,
				0,
				1.533,
				1
			]
		},
		{
			"Target": "PartOpacity",
			"Id": "Part19",
			"Segments": [
				0,
				1,
				0,
				1.533,
				1
			]
		},
		{
			"Target": "PartOpacity",
			"Id": "Part20",
			"Segments": [
				0,
				1,
				0,
				1.533,
				1
			]
		},
		{
			"Target": "PartOpacity",
			"Id": "Part7",
			"Segments": [
				0,
				1,
				0,
				1.533,
				1
			]
		},
		{
			"Target": "PartOpacity",
			"Id": "Part8",
			"Segments": [
				0,
				1,
				0,
				1.533,
				1
			]
		},
		{
			"Target": "PartOpacity",
			"Id": "PartHairSide",
			"Segments": [
				0,
				1,
				0,
				1.533,
				1
			]
		},
		{
			"Target": "PartOpacity",
			"Id": "PartHairFront",
			"Segments": [
				0,
				1,
				0,
				1.533,
				1
			]
		},
		{
			"Target": "PartOpacity",
			"Id": "Part10",
			"Segments": [
				0,
				1,
				0,
				1.533,
				1
			]
		},
		{
			"Target": "PartOpacity",
			"Id": "Part11",
			"Segments": [
				0,
				1,
				0,
				1.533,
				1
			]
		},
		{
			"Target": "PartOpacity",
			"Id": "PartEyeL",
			"Segments": [
				0,
				1,
				0,
				1.533,
				1
			]
		},
		{
			"Target": "PartOpacity",
			"Id": "PartEyeR",
			"Segments": [
				0,
				1,
				0,
				1.533,
				1
			]
		},
		{
			"Target": "PartOpacity",
			"Id": "Part15",
			"Segments": [
				0,
				1,
				0,
				1.533,
				1
			]
		},
		{
			"Target": "PartOpacity",
			"Id": "Part14",
			"Segments": [
				0,
				1,
				0,
				1.533,
				1
			]
		},
		{
			"Target": "PartOpacity",
			"Id": "PartHairFrontShadow",
			"Segments": [
				0,
				1,
				0,
				1.533,
				1
			]
		},
		{
			"Target": "PartOpacity",
			"Id": "PartBody",
			"Segments": [
				0,
				1,
				0,
				1.533,
				1
			]
		},
		{
			"Target": "PartOpacity",
			"Id": "PartUpperBody",
			"Segments": [
				0,
				1,
				0,
				1.533,
				1
			]
		},
		{
			"Target": "PartOpacity",
			"Id": "PartCoatL",
			"Segments": [
				0,
				1,
				0,
				1.533,
				1
			]
		},
		{
			"Target": "PartOpacity",
			"Id": "PartCoatR",
			"Segments": [
				0,
				1,
				0,
				1.533,
				1
			]
		},
		{
			"Target": "PartOpacity",
			"Id": "PartNeck",
			"Segments": [
				0,
				1,
				0,
				1.533,
				1
			]
		},
		{
			"Target": "PartOpacity",
			"Id": "PartSkirt",
			"Segments": [
				0,
				1,
				0,
				1.533,
				1
			]
		},
		{
			"Target": "PartOpacity",
			"Id": "Part18",
			"Segments": [
				0,
				1,
				0,
				1.533,
				1
			]
		},
		{
			"Target": "PartOpacity",
			"Id": "Part12",
			"Segments": [
				0,
				1,
				0,
				1.533,
				1
			]
		},
		{
			"Target": "PartOpacity",
			"Id": "Part42",
			"Segments": [
				0,
				1,
				0,
				1.533,
				1
			]
		},
		{
			"Target": "PartOpacity",
			"Id": "Part9",
			"Segments": [
				0,
				1,
				0,
				1.533,
				1
			]
		},
		{
			"Target": "PartOpacity",
			"Id": "Part22",
			"Segments": [
				0,
				1,
				0,
				1.533,
				1
			]
		},
		{
			"Target": "PartOpacity",
			"Id": "Part21",
			"Segments": [
				0,
				1,
				0,
				1.533,
				1
			]
		},
		{
			"Target": "PartOpacity",
			"Id": "Part13",
			"Segments": [
				0,
				1,
				0,
				1.533,
				1
			]
		},
		{
			"Target": "PartOpacity",
			"Id": "Part24",
			"Segments": [
				0,
				1,
				0,
				1.533,
				1
			]
		},
		{
			"Target": "PartOpacity",
			"Id": "Part23",
			"Segments": [
				0,
				1,
				0,
				1.533,
				1
			]
		},
		{
			"Target": "PartOpacity",
			"Id": "PartHairBack",
			"Segments": [
				0,
				1,
				0,
				1.533,
				1
			]
		},
		{
			"Target": "PartOpacity",
			"Id": "Part25",
			"Segments": [
				0,
				1,
				0,
				1.533,
				1
			]
		},
		{
			"Target": "PartOpacity",
			"Id": "PartFootR",
			"Segments": [
				0,
				1,
				0,
				1.533,
				1
			]
		},
		{
			"Target": "PartOpacity",
			"Id": "PartFootL",
			"Segments": [
				0,
				1,
				0,
				1.533,
				1
			]
		},
		{
			"Target": "PartOpacity",
			"Id": "PartKneeL",
			"Segments": [
				0,
				1,
				0,
				1.533,
				1
			]
		},
		{
			"Target": "PartOpacity",
			"Id": "PartKneeR",
			"Segments": [
				0,
				1,
				0,
				1.533,
				1
			]
		}
	]
}