{
	"Version": 3,
	"Meta": {
		"Duration": 1.933,
		"Fps": 30.0,
		"Loop": true,
		"AreBeziersRestricted": true,
		"CurveCount": 94,
		"TotalSegmentCount": 266,
		"TotalPointCount": 804,
		"UserDataCount": 0,
		"TotalUserDataSize": 0
	},
	"Curves": [
		{
			"Target": "Parameter",
			"Id": "ParamAngleX",
			"Segments": [
				0,
				0,
				1,
				0.222,
				0,
				0.444,
				30,
				0.667,
				30,
				1,
				0.767,
				30,
				0.867,
				29.115,
				0.967,
				22.535,
				1,
				1.044,
				17.416,
				1.122,
				8,
				1.2,
				8,
				1,
				1.444,
				8,
				1.689,
				18,
				1.933,
				18
			]
		},
		{
			"Target": "Parameter",
			"Id": "ParamAngleY",
			"Segments": [
				0,
				0,
				1,
				0.222,
				0,
				0.444,
				12,
				0.667,
				12,
				1,
				0.844,
				12,
				1.022,
				-14,
				1.2,
				-14,
				1,
				1.444,
				-14,
				1.689,
				0,
				1.933,
				0
			]
		},
		{
			"Target": "Parameter",
			"Id": "ParamAngleZ",
			"Segments": [
				0,
				0,
				1,
				0.222,
				0,
				0.444,
				20,
				0.667,
				20,
				1,
				0.767,
				20,
				0.867,
				7.133,
				0.967,
				-6.524,
				1,
				1.044,
				-17.147,
				1.011,
				-13.87,
				1.2,
				-19,
				1,
				1.444,
				-25.574,
				1.689,
				18,
				1.933,
				18
			]
		},
		{
			"Target": "Parameter",
			"Id": "ParamEyeLOpen",
			"Segments": [
				0,
				1,
				1,
				0.033,
				1,
				0.067,
				0,
				0.1,
				0,
				1,
				0.111,
				0,
				0.122,
				0,
				0.133,
				0,
				1,
				0.211,
				0,
				0.289,
				1,
				0.367,
				1,
				1,
				0.467,
				1,
				0.567,
				1,
				0.667,
				1,
				1,
				0.767,
				1,
				0.867,
				0,
				0.967,
				0,
				1,
				1.044,
				0,
				1.122,
				0,
				1.2,
				0,
				1,
				1.289,
				0,
				1.378,
				0,
				1.467,
				0,
				1,
				1.622,
				0,
				1.778,
				0.8,
				1.933,
				0.8
			]
		},
		{
			"Target": "Parameter",
			"Id": "ParamEyeLSmile",
			"Segments": [
				0,
				0.5,
				1,
				0.033,
				0.5,
				0.067,
				0,
				0.1,
				0,
				1,
				0.111,
				0,
				0.122,
				0,
				0.133,
				0,
				1,
				0.211,
				0,
				0.289,
				0.5,
				0.367,
				0.5,
				1,
				0.467,
				0.5,
				0.567,
				0,
				0.667,
				0,
				1,
				0.767,
				0,
				0.867,
				0,
				0.967,
				0,
				1,
				1.044,
				0,
				1.122,
				0,
				1.2,
				0,
				1,
				1.289,
				0,
				1.378,
				0,
				1.467,
				0,
				1,
				1.622,
				0,
				1.778,
				0,
				1.933,
				0
			]
		},
		{
			"Target": "Parameter",
			"Id": "ParamEyeLForm",
			"Segments": [
				0,
				0,
				1,
				0.222,
				0,
				0.444,
				0,
				0.667,
				0,
				1,
				0.767,
				0,
				0.867,
				0,
				0.967,
				0,
				1,
				1.044,
				0,
				1.122,
				0,
				1.2,
				0,
				1,
				1.289,
				0,
				1.378,
				0,
				1.467,
				0,
				1,
				1.622,
				0,
				1.778,
				0,
				1.933,
				0
			]
		},
		{
			"Target": "Parameter",
			"Id": "ParamEyeROpen",
			"Segments": [
				0,
				1,
				1,
				0.033,
				1,
				0.067,
				0,
				0.1,
				0,
				1,
				0.111,
				0,
				0.122,
				0,
				0.133,
				0,
				1,
				0.211,
				0,
				0.289,
				1,
				0.367,
				1,
				1,
				0.467,
				1,
				0.567,
				1,
				0.667,
				1,
				1,
				0.767,
				1,
				0.867,
				0,
				0.967,
				0,
				1,
				1.044,
				0,
				1.122,
				0,
				1.2,
				0,
				1,
				1.289,
				0,
				1.378,
				0,
				1.467,
				0,
				1,
				1.622,
				0,
				1.778,
				0.8,
				1.933,
				0.8
			]
		},
		{
			"Target": "Parameter",
			"Id": "ParamEyeRSmile",
			"Segments": [
				0,
				0.5,
				1,
				0.033,
				0.5,
				0.067,
				0,
				0.1,
				0,
				1,
				0.111,
				0,
				0.122,
				0,
				0.133,
				0,
				1,
				0.211,
				0,
				0.289,
				0.5,
				0.367,
				0.5,
				1,
				0.467,
				0.5,
				0.567,
				0,
				0.667,
				0,
				1,
				0.767,
				0,
				0.867,
				0,
				0.967,
				0,
				1,
				1.044,
				0,
				1.122,
				0,
				1.2,
				0,
				1,
				1.289,
				0,
				1.378,
				0,
				1.467,
				0,
				1,
				1.622,
				0,
				1.778,
				0,
				1.933,
				0
			]
		},
		{
			"Target": "Parameter",
			"Id": "ParamEyeRForm",
			"Segments": [
				0,
				0,
				1,
				0.222,
				0,
				0.444,
				0,
				0.667,
				0,
				1,
				0.767,
				0,
				0.867,
				0,
				0.967,
				0,
				1,
				1.044,
				0,
				1.122,
				0,
				1.2,
				0,
				1,
				1.289,
				0,
				1.378,
				0,
				1.467,
				0,
				1,
				1.622,
				0,
				1.778,
				0,
				1.933,
				0
			]
		},
		{
			"Target": "Parameter",
			"Id": "ParamEyeBallX",
			"Segments": [
				0,
				0,
				1,
				0.222,
				0,
				0.444,
				-1,
				0.667,
				-1,
				1,
				0.767,
				-1,
				0.867,
				-1,
				0.967,
				-1,
				1,
				1.044,
				-1,
				1.122,
				-1,
				1.2,
				-1,
				1,
				1.289,
				-1,
				1.378,
				-1,
				1.467,
				-1,
				1,
				1.622,
				-1,
				1.778,
				1,
				1.933,
				1
			]
		},
		{
			"Target": "Parameter",
			"Id": "ParamEyeBallY",
			"Segments": [
				0,
				0,
				1,
				0.222,
				0,
				0.444,
				0,
				0.667,
				0,
				1,
				0.767,
				0,
				0.867,
				0,
				0.967,
				0,
				1,
				1.044,
				0,
				1.122,
				0,
				1.2,
				0,
				1,
				1.289,
				0,
				1.378,
				0,
				1.467,
				0,
				1,
				1.622,
				0,
				1.778,
				0,
				1.933,
				0
			]
		},
		{
			"Target": "Parameter",
			"Id": "ParamEyeBallExpand",
			"Segments": [
				0,
				0.7,
				1,
				0.222,
				0.7,
				0.444,
				0.7,
				0.667,
				0.7,
				1,
				0.767,
				0.7,
				0.867,
				0.7,
				0.967,
				0.7,
				1,
				1.044,
				0.7,
				1.122,
				0.7,
				1.2,
				0.7,
				1,
				1.289,
				0.7,
				1.378,
				0.7,
				1.467,
				0.7,
				1,
				1.622,
				0.7,
				1.778,
				0.7,
				1.933,
				0.7
			]
		},
		{
			"Target": "Parameter",
			"Id": "ParamBrowLX",
			"Segments": [
				0,
				0,
				1,
				0.222,
				0,
				0.444,
				-0.1,
				0.667,
				-0.1,
				1,
				0.767,
				-0.1,
				0.867,
				-0.1,
				0.967,
				-0.1,
				1,
				1.044,
				-0.1,
				1.122,
				-0.1,
				1.2,
				-0.1,
				1,
				1.444,
				-0.1,
				1.689,
				-0.1,
				1.933,
				-0.1
			]
		},
		{
			"Target": "Parameter",
			"Id": "ParamBrowLY",
			"Segments": [
				0,
				0,
				1,
				0.222,
				0,
				0.444,
				0.1,
				0.667,
				0.1,
				1,
				0.767,
				0.1,
				0.867,
				0.1,
				0.967,
				0.1,
				1,
				1.044,
				0.1,
				1.122,
				0.1,
				1.2,
				0.1,
				1,
				1.444,
				0.1,
				1.689,
				0.1,
				1.933,
				0.1
			]
		},
		{
			"Target": "Parameter",
			"Id": "ParamBrowRX",
			"Segments": [
				0,
				0,
				1,
				0.222,
				0,
				0.444,
				0.2,
				0.667,
				0.2,
				1,
				0.767,
				0.2,
				0.867,
				0.2,
				0.967,
				0.2,
				1,
				1.044,
				0.2,
				1.122,
				0.2,
				1.2,
				0.2,
				1,
				1.444,
				0.2,
				1.689,
				0.2,
				1.933,
				0.2
			]
		},
		{
			"Target": "Parameter",
			"Id": "ParamBrowRY",
			"Segments": [
				0,
				0,
				1,
				0.222,
				0,
				0.444,
				0.1,
				0.667,
				0.1,
				1,
				0.767,
				0.1,
				0.867,
				0.1,
				0.967,
				0.1,
				1,
				1.044,
				0.1,
				1.122,
				0.1,
				1.2,
				0.1,
				1,
				1.444,
				0.1,
				1.689,
				0.1,
				1.933,
				0.1
			]
		},
		{
			"Target": "Parameter",
			"Id": "ParamBrowLAngle",
			"Segments": [
				0,
				0,
				1,
				0.222,
				0,
				0.444,
				0,
				0.667,
				0,
				1,
				0.767,
				0,
				0.867,
				0,
				0.967,
				0,
				1,
				1.044,
				0,
				1.122,
				0,
				1.2,
				0,
				1,
				1.444,
				0,
				1.689,
				0,
				1.933,
				0
			]
		},
		{
			"Target": "Parameter",
			"Id": "ParamBrowRAngle",
			"Segments": [
				0,
				0,
				1,
				0.222,
				0,
				0.444,
				-0.1,
				0.667,
				-0.1,
				1,
				0.767,
				-0.1,
				0.867,
				-0.1,
				0.967,
				-0.1,
				1,
				1.044,
				-0.1,
				1.122,
				-0.1,
				1.2,
				-0.1,
				1,
				1.444,
				-0.1,
				1.689,
				-0.1,
				1.933,
				-0.1
			]
		},
		{
			"Target": "Parameter",
			"Id": "ParamBrowLForm",
			"Segments": [
				0,
				-1,
				1,
				0.222,
				-1,
				0.444,
				-1,
				0.667,
				-1,
				1,
				0.767,
				-1,
				0.867,
				-1,
				0.967,
				-1,
				1,
				1.044,
				-1,
				1.122,
				-1,
				1.2,
				-1,
				1,
				1.444,
				-1,
				1.689,
				-1,
				1.933,
				-1
			]
		},
		{
			"Target": "Parameter",
			"Id": "ParamBrowLShapeMemory",
			"Segments": [
				0,
				1,
				1,
				0.222,
				1,
				0.444,
				0,
				0.667,
				0,
				1,
				0.767,
				0,
				0.867,
				0,
				0.967,
				0,
				1,
				1.044,
				0,
				1.122,
				0,
				1.2,
				0,
				1,
				1.444,
				0,
				1.689,
				0,
				1.933,
				0
			]
		},
		{
			"Target": "Parameter",
			"Id": "ParamBrowRForm",
			"Segments": [
				0,
				-1,
				1,
				0.222,
				-1,
				0.444,
				-1,
				0.667,
				-1,
				1,
				0.767,
				-1,
				0.867,
				-1,
				0.967,
				-1,
				1,
				1.044,
				-1,
				1.122,
				-1,
				1.2,
				-1,
				1,
				1.444,
				-1,
				1.689,
				-1,
				1.933,
				-1
			]
		},
		{
			"Target": "Parameter",
			"Id": "ParamBrowRShapeMemory",
			"Segments": [
				0,
				1,
				1,
				0.222,
				1,
				0.444,
				0,
				0.667,
				0,
				1,
				0.767,
				0,
				0.867,
				0,
				0.967,
				0,
				1,
				1.044,
				0,
				1.122,
				0,
				1.2,
				0,
				1,
				1.444,
				0,
				1.689,
				0,
				1.933,
				0
			]
		},
		{
			"Target": "Parameter",
			"Id": "ParamMouthForm",
			"Segments": [
				0,
				0,
				1,
				0.222,
				0,
				0.444,
				-1,
				0.667,
				-1,
				1,
				0.767,
				-1,
				0.867,
				-0.898,
				0.967,
				-0.841,
				1,
				1.044,
				-0.797,
				1.122,
				-0.8,
				1.2,
				-0.8,
				1,
				1.444,
				-0.8,
				1.689,
				-0.8,
				1.933,
				-0.8
			]
		},
		{
			"Target": "Parameter",
			"Id": "ParamMouthOpenY",
			"Segments": [
				0,
				0,
				1,
				0.222,
				0,
				0.444,
				0,
				0.667,
				0,
				1,
				0.767,
				0,
				0.867,
				0.358,
				0.967,
				0.556,
				1,
				1.044,
				0.71,
				1.122,
				0.7,
				1.2,
				0.7,
				1,
				1.444,
				0.7,
				1.689,
				0,
				1.933,
				0
			]
		},
		{
			"Target": "Parameter",
			"Id": "ParamCheek",
			"Segments": [
				0,
				0,
				1,
				0.222,
				0,
				0.444,
				0,
				0.667,
				0,
				1,
				0.767,
				0,
				0.867,
				0,
				0.967,
				0,
				1,
				1.044,
				0,
				1.122,
				0,
				1.2,
				0,
				1,
				1.444,
				0,
				1.689,
				0,
				1.933,
				0
			]
		},
		{
			"Target": "Parameter",
			"Id": "ParamBreath",
			"Segments": [
				0,
				0,
				1,
				0.222,
				0,
				0.444,
				0,
				0.667,
				0,
				1,
				0.767,
				0,
				0.867,
				0,
				0.967,
				0,
				1,
				1.044,
				0,
				1.122,
				0,
				1.2,
				0,
				1,
				1.444,
				0,
				1.689,
				0,
				1.933,
				0
			]
		},
		{
			"Target": "Parameter",
			"Id": "ParamBodyExpand",
			"Segments": [
				0,
				0,
				1,
				0.222,
				0,
				0.444,
				0,
				0.667,
				0,
				1,
				0.767,
				0,
				0.867,
				0,
				0.967,
				0,
				1,
				1.044,
				0,
				1.122,
				0,
				1.2,
				0,
				1,
				1.444,
				0,
				1.689,
				0,
				1.933,
				0
			]
		},
		{
			"Target": "Parameter",
			"Id": "ParamShoulderL",
			"Segments": [
				0,
				0,
				1,
				0.222,
				0,
				0.444,
				0,
				0.667,
				0,
				1,
				0.767,
				0,
				0.867,
				-0.512,
				0.967,
				-0.794,
				1,
				1.044,
				-1.013,
				1.122,
				-1,
				1.2,
				-1,
				1,
				1.444,
				-1,
				1.689,
				-0.5,
				1.933,
				-0.5
			]
		},
		{
			"Target": "Parameter",
			"Id": "ParamShoulderR",
			"Segments": [
				0,
				0,
				1,
				0.222,
				0,
				0.444,
				0,
				0.667,
				0,
				1,
				0.767,
				0,
				0.867,
				-0.512,
				0.967,
				-0.794,
				1,
				1.044,
				-1.013,
				1.122,
				-1,
				1.2,
				-1,
				1,
				1.444,
				-1,
				1.689,
				-0.5,
				1.933,
				-0.5
			]
		},
		{
			"Target": "Parameter",
			"Id": "ParamBodyAngleX",
			"Segments": [
				0,
				0,
				1,
				0.222,
				0,
				0.444,
				6,
				0.667,
				6,
				1,
				0.767,
				6,
				0.867,
				4.495,
				0.967,
				2.28,
				1,
				1.044,
				0.556,
				1.011,
				1.6,
				1.2,
				0,
				1,
				1.444,
				-1.517,
				1.689,
				0,
				1.933,
				0
			]
		},
		{
			"Target": "Parameter",
			"Id": "ParamBodyAngleY",
			"Segments": [
				0,
				0,
				1,
				0.222,
				0,
				0.444,
				4,
				0.667,
				4,
				1,
				0.767,
				4,
				0.867,
				0.207,
				0.967,
				-3.696,
				1,
				1.044,
				-6.733,
				1.011,
				-5.876,
				1.2,
				-7.244,
				1,
				1.444,
				-10,
				1.689,
				0,
				1.933,
				0
			]
		},
		{
			"Target": "Parameter",
			"Id": "ParamBodyAngleZ",
			"Segments": [
				0,
				0,
				1,
				0.222,
				0,
				0.444,
				0,
				0.667,
				0,
				1,
				0.767,
				0,
				0.867,
				0,
				0.967,
				0,
				1,
				1.044,
				0,
				1.122,
				0,
				1.2,
				0,
				1,
				1.444,
				0,
				1.689,
				0,
				1.933,
				0
			]
		},
		{
			"Target": "Parameter",
			"Id": "ParamArmChange",
			"Segments": [
				0,
				0,
				1,
				0.222,
				0,
				0.444,
				0,
				0.667,
				0,
				1,
				0.767,
				0,
				0.867,
				0,
				0.967,
				0,
				1,
				1.044,
				0,
				1.122,
				0,
				1.2,
				0,
				1,
				1.444,
				0,
				1.689,
				0,
				1.933,
				0
			]
		},
		{
			"Target": "Parameter",
			"Id": "ParamArmAngleL00_01_02",
			"Segments": [
				0,
				0.6,
				1,
				0.222,
				0.6,
				0.444,
				0.3,
				0.667,
				0.3,
				1,
				0.767,
				0.3,
				0.867,
				0.3,
				0.967,
				0.3,
				1,
				1.044,
				0.3,
				1.122,
				0.3,
				1.2,
				0.3,
				1,
				1.444,
				0.3,
				1.689,
				0.1,
				1.933,
				0.1
			]
		},
		{
			"Target": "Parameter",
			"Id": "ParamArmAngleL03",
			"Segments": [
				0,
				0,
				1,
				0.222,
				0,
				0.444,
				0,
				0.667,
				0,
				1,
				0.767,
				0,
				0.867,
				0,
				0.967,
				0,
				1,
				1.044,
				0,
				1.122,
				0,
				1.2,
				0,
				1,
				1.444,
				0,
				1.689,
				0,
				1.933,
				0
			]
		},
		{
			"Target": "Parameter",
			"Id": "ParamHandR03",
			"Segments": [
				0,
				0,
				1,
				0.222,
				0,
				0.444,
				0,
				0.667,
				0,
				1,
				0.767,
				0,
				0.867,
				0,
				0.967,
				0,
				1,
				1.044,
				0,
				1.122,
				0,
				1.2,
				0,
				1,
				1.444,
				0,
				1.689,
				0,
				1.933,
				0
			]
		},
		{
			"Target": "Parameter",
			"Id": "ParamArmAngleL04",
			"Segments": [
				0,
				0,
				1,
				0.222,
				0,
				0.444,
				0,
				0.667,
				0,
				1,
				0.767,
				0,
				0.867,
				0,
				0.967,
				0,
				1,
				1.044,
				0,
				1.122,
				0,
				1.2,
				0,
				1,
				1.444,
				0,
				1.689,
				0,
				1.933,
				0
			]
		},
		{
			"Target": "Parameter",
			"Id": "ParamHandChangeL00_02",
			"Segments": [
				0,
				1,
				1,
				0.067,
				1,
				0.133,
				0,
				0.2,
				0,
				1,
				0.356,
				0,
				0.511,
				0,
				0.667,
				0,
				1,
				0.767,
				0,
				0.867,
				0,
				0.967,
				0,
				1,
				1.044,
				0,
				1.122,
				0,
				1.2,
				0,
				1,
				1.444,
				0,
				1.689,
				0,
				1.933,
				0
			]
		},
		{
			"Target": "Parameter",
			"Id": "ParamArmAngleR00_02",
			"Segments": [
				0,
				0.3,
				1,
				0.222,
				0.3,
				0.444,
				-1,
				0.667,
				-1,
				1,
				0.767,
				-1,
				0.867,
				-1,
				0.967,
				-1,
				1,
				1.044,
				-1,
				1.122,
				-1,
				1.2,
				-1,
				1,
				1.444,
				-1,
				1.689,
				-1,
				1.933,
				-1
			]
		},
		{
			"Target": "Parameter",
			"Id": "ParamArmAngleR03",
			"Segments": [
				0,
				0,
				1,
				0.222,
				0,
				0.444,
				0,
				0.667,
				0,
				1,
				0.767,
				0,
				0.867,
				0,
				0.967,
				0,
				1,
				1.044,
				0,
				1.122,
				0,
				1.2,
				0,
				1,
				1.444,
				0,
				1.689,
				0,
				1.933,
				0
			]
		},
		{
			"Target": "Parameter",
			"Id": "ParamHandL03",
			"Segments": [
				0,
				0,
				1,
				0.222,
				0,
				0.444,
				0,
				0.667,
				0,
				1,
				0.767,
				0,
				0.867,
				0,
				0.967,
				0,
				1,
				1.044,
				0,
				1.122,
				0,
				1.2,
				0,
				1,
				1.444,
				0,
				1.689,
				0,
				1.933,
				0
			]
		},
		{
			"Target": "Parameter",
			"Id": "ParamArmAngleR04",
			"Segments": [
				0,
				0,
				1,
				0.222,
				0,
				0.444,
				0,
				0.667,
				0,
				1,
				0.767,
				0,
				0.867,
				0,
				0.967,
				0,
				1,
				1.044,
				0,
				1.122,
				0,
				1.2,
				0,
				1,
				1.444,
				0,
				1.689,
				0,
				1.933,
				0
			]
		},
		{
			"Target": "Parameter",
			"Id": "ParamHandChangeR00_02",
			"Segments": [
				0,
				1,
				1,
				0.067,
				1,
				0.133,
				0,
				0.2,
				0,
				1,
				0.356,
				0,
				0.511,
				0,
				0.667,
				0,
				1,
				0.767,
				0,
				0.867,
				0,
				0.967,
				0,
				1,
				1.044,
				0,
				1.122,
				0,
				1.2,
				0,
				1,
				1.444,
				0,
				1.689,
				0,
				1.933,
				0
			]
		},
		{
			"Target": "Parameter",
			"Id": "ParamHairFront",
			"Segments": [
				0,
				0,
				1,
				0.222,
				0,
				0.444,
				0,
				0.667,
				0,
				1,
				0.767,
				0,
				0.867,
				0,
				0.967,
				0,
				1,
				1.044,
				0,
				1.122,
				0,
				1.2,
				0,
				1,
				1.444,
				0,
				1.689,
				0,
				1.933,
				0
			]
		},
		{
			"Target": "Parameter",
			"Id": "ParamHairSide",
			"Segments": [
				0,
				0,
				1,
				0.222,
				0,
				0.444,
				0,
				0.667,
				0,
				1,
				0.767,
				0,
				0.867,
				0,
				0.967,
				0,
				1,
				1.044,
				0,
				1.122,
				0,
				1.2,
				0,
				1,
				1.444,
				0,
				1.689,
				0,
				1.933,
				0
			]
		},
		{
			"Target": "Parameter",
			"Id": "ParamHairBack",
			"Segments": [
				0,
				0,
				1,
				0.222,
				0,
				0.444,
				0,
				0.667,
				0,
				1,
				0.767,
				0,
				0.867,
				0,
				0.967,
				0,
				1,
				1.044,
				0,
				1.122,
				0,
				1.2,
				0,
				1,
				1.444,
				0,
				1.689,
				0,
				1.933,
				0
			]
		},
		{
			"Target": "Parameter",
			"Id": "ParamHairHuwa",
			"Segments": [
				0,
				0,
				1,
				0.133,
				0,
				0.267,
				-30,
				0.4,
				-30,
				1,
				0.544,
				-30,
				0.689,
				5,
				0.833,
				5,
				1,
				1.011,
				5,
				1.189,
				-17,
				1.367,
				-17,
				1,
				1.556,
				-17,
				1.744,
				0,
				1.933,
				0
			]
		},
		{
			"Target": "Parameter",
			"Id": "ParamFootL",
			"Segments": [
				0,
				0,
				1,
				0.222,
				0,
				0.444,
				0,
				0.667,
				0,
				1,
				0.767,
				0,
				0.867,
				0,
				0.967,
				0,
				1,
				1.044,
				0,
				1.122,
				0,
				1.2,
				0,
				1,
				1.444,
				0,
				1.689,
				0,
				1.933,
				0
			]
		},
		{
			"Target": "Parameter",
			"Id": "ParamFootR",
			"Segments": [
				0,
				0,
				1,
				0.222,
				0,
				0.444,
				0,
				0.667,
				0,
				1,
				0.767,
				0,
				0.867,
				0,
				0.967,
				0,
				1,
				1.044,
				0,
				1.122,
				0,
				1.2,
				0,
				1,
				1.444,
				0,
				1.689,
				0,
				1.933,
				0
			]
		},
		{
			"Target": "Parameter",
			"Id": "ParamSkirt",
			"Segments": [
				0,
				0,
				1,
				0.222,
				0,
				0.444,
				0,
				0.667,
				0,
				1,
				0.767,
				0,
				0.867,
				0,
				0.967,
				0,
				1,
				1.044,
				0,
				1.122,
				0,
				1.2,
				0,
				1,
				1.444,
				0,
				1.689,
				0,
				1.933,
				0
			]
		},
		{
			"Target": "PartOpacity",
			"Id": "PartPng",
			"Segments": [
				0,
				1,
				0,
				1.933,
				1
			]
		},
		{
			"Target": "PartOpacity",
			"Id": "PartArmPose04",
			"Segments": [
				0,
				1,
				0,
				1.933,
				1
			]
		},
		{
			"Target": "PartOpacity",
			"Id": "Part16",
			"Segments": [
				0,
				1,
				0,
				1.933,
				1
			]
		},
		{
			"Target": "PartOpacity",
			"Id": "Part17",
			"Segments": [
				0,
				1,
				0,
				1.933,
				1
			]
		},
		{
			"Target": "PartOpacity",
			"Id": "PartArmPose03",
			"Segments": [
				0,
				1,
				0,
				1.933,
				1
			]
		},
		{
			"Target": "PartOpacity",
			"Id": "Part",
			"Segments": [
				0,
				1,
				0,
				1.933,
				1
			]
		},
		{
			"Target": "PartOpacity",
			"Id": "Part2",
			"Segments": [
				0,
				1,
				0,
				1.933,
				1
			]
		},
		{
			"Target": "PartOpacity",
			"Id": "PartCore",
			"Segments": [
				0,
				1,
				0,
				1.933,
				1
			]
		},
		{
			"Target": "PartOpacity",
			"Id": "Part5",
			"Segments": [
				0,
				1,
				0,
				1.933,
				1
			]
		},
		{
			"Target": "PartOpacity",
			"Id": "Part6",
			"Segments": [
				0,
				1,
				0,
				1.933,
				1
			]
		},
		{
			"Target": "PartOpacity",
			"Id": "Part19",
			"Segments": [
				0,
				1,
				0,
				1.933,
				1
			]
		},
		{
			"Target": "PartOpacity",
			"Id": "Part20",
			"Segments": [
				0,
				1,
				0,
				1.933,
				1
			]
		},
		{
			"Target": "PartOpacity",
			"Id": "Part7",
			"Segments": [
				0,
				1,
				0,
				1.933,
				1
			]
		},
		{
			"Target": "PartOpacity",
			"Id": "Part8",
			"Segments": [
				0,
				1,
				0,
				1.933,
				1
			]
		},
		{
			"Target": "PartOpacity",
			"Id": "PartHairSide",
			"Segments": [
				0,
				1,
				0,
				1.933,
				1
			]
		},
		{
			"Target": "PartOpacity",
			"Id": "PartHairFront",
			"Segments": [
				0,
				1,
				0,
				1.933,
				1
			]
		},
		{
			"Target": "PartOpacity",
			"Id": "Part10",
			"Segments": [
				0,
				1,
				0,
				1.933,
				1
			]
		},
		{
			"Target": "PartOpacity",
			"Id": "Part11",
			"Segments": [
				0,
				1,
				0,
				1.933,
				1
			]
		},
		{
			"Target": "PartOpacity",
			"Id": "PartEyeL",
			"Segments": [
				0,
				1,
				0,
				1.933,
				1
			]
		},
		{
			"Target": "PartOpacity",
			"Id": "PartEyeR",
			"Segments": [
				0,
				1,
				0,
				1.933,
				1
			]
		},
		{
			"Target": "PartOpacity",
			"Id": "Part15",
			"Segments": [
				0,
				1,
				0,
				1.933,
				1
			]
		},
		{
			"Target": "PartOpacity",
			"Id": "Part14",
			"Segments": [
				0,
				1,
				0,
				1.933,
				1
			]
		},
		{
			"Target": "PartOpacity",
			"Id": "PartHairFrontShadow",
			"Segments": [
				0,
				1,
				0,
				1.933,
				1
			]
		},
		{
			"Target": "PartOpacity",
			"Id": "PartBody",
			"Segments": [
				0,
				1,
				0,
				1.933,
				1
			]
		},
		{
			"Target": "PartOpacity",
			"Id": "PartUpperBody",
			"Segments": [
				0,
				1,
				0,
				1.933,
				1
			]
		},
		{
			"Target": "PartOpacity",
			"Id": "PartCoatL",
			"Segments": [
				0,
				1,
				0,
				1.933,
				1
			]
		},
		{
			"Target": "PartOpacity",
			"Id": "PartCoatR",
			"Segments": [
				0,
				1,
				0,
				1.933,
				1
			]
		},
		{
			"Target": "PartOpacity",
			"Id": "PartNeck",
			"Segments": [
				0,
				1,
				0,
				1.933,
				1
			]
		},
		{
			"Target": "PartOpacity",
			"Id": "PartSkirt",
			"Segments": [
				0,
				1,
				0,
				1.933,
				1
			]
		},
		{
			"Target": "PartOpacity",
			"Id": "Part18",
			"Segments": [
				0,
				1,
				0,
				1.933,
				1
			]
		},
		{
			"Target": "PartOpacity",
			"Id": "Part12",
			"Segments": [
				0,
				1,
				0,
				1.933,
				1
			]
		},
		{
			"Target": "PartOpacity",
			"Id": "Part42",
			"Segments": [
				0,
				1,
				0,
				1.933,
				1
			]
		},
		{
			"Target": "PartOpacity",
			"Id": "Part9",
			"Segments": [
				0,
				1,
				0,
				1.933,
				1
			]
		},
		{
			"Target": "PartOpacity",
			"Id": "Part22",
			"Segments": [
				0,
				1,
				0,
				1.933,
				1
			]
		},
		{
			"Target": "PartOpacity",
			"Id": "Part21",
			"Segments": [
				0,
				1,
				0,
				1.933,
				1
			]
		},
		{
			"Target": "PartOpacity",
			"Id": "Part13",
			"Segments": [
				0,
				1,
				0,
				1.933,
				1
			]
		},
		{
			"Target": "PartOpacity",
			"Id": "Part24",
			"Segments": [
				0,
				1,
				0,
				1.933,
				1
			]
		},
		{
			"Target": "PartOpacity",
			"Id": "Part23",
			"Segments": [
				0,
				1,
				0,
				1.933,
				1
			]
		},
		{
			"Target": "PartOpacity",
			"Id": "PartHairBack",
			"Segments": [
				0,
				1,
				0,
				1.933,
				1
			]
		},
		{
			"Target": "PartOpacity",
			"Id": "Part25",
			"Segments": [
				0,
				1,
				0,
				1.933,
				1
			]
		},
		{
			"Target": "PartOpacity",
			"Id": "PartFootR",
			"Segments": [
				0,
				1,
				0,
				1.933,
				1
			]
		},
		{
			"Target": "PartOpacity",
			"Id": "PartFootL",
			"Segments": [
				0,
				1,
				0,
				1.933,
				1
			]
		},
		{
			"Target": "PartOpacity",
			"Id": "PartKneeL",
			"Segments": [
				0,
				1,
				0,
				1.933,
				1
			]
		},
		{
			"Target": "PartOpacity",
			"Id": "PartKneeR",
			"Segments": [
				0,
				1,
				0,
				1.933,
				1
			]
		}
	]
}