{
	"Version": 3,
	"Meta": {
		"Duration": 1.3,
		"Fps": 30.0,
		"Loop": true,
		"AreBeziersRestricted": true,
		"CurveCount": 89,
		"TotalSegmentCount": 274,
		"TotalPointCount": 821,
		"UserDataCount": 0,
		"TotalUserDataSize": 0
	},
	"Curves": [
		{
			"Target": "Parameter",
			"Id": "ParamAngleX",
			"Segments": [
				0,
				0,
				1,
				0.122,
				0,
				0.244,
				-7.019,
				0.367,
				-10,
				1,
				0.422,
				-11.355,
				0.478,
				-11,
				0.533,
				-11,
				1,
				0.622,
				-11,
				0.711,
				-11,
				0.8,
				-11,
				1,
				0.867,
				-11,
				0.933,
				-11,
				1,
				-11,
				1,
				1.1,
				-11,
				1.2,
				15,
				1.3,
				15
			]
		},
		{
			"Target": "Parameter",
			"Id": "ParamAngleY",
			"Segments": [
				0,
				0,
				1,
				0.122,
				0,
				0.244,
				0,
				0.367,
				0,
				1,
				0.422,
				0,
				0.478,
				-10,
				0.533,
				-10,
				1,
				0.622,
				-10,
				0.711,
				-10,
				0.8,
				-10,
				1,
				0.867,
				-10,
				0.933,
				-19,
				1,
				-19,
				1,
				1.1,
				-19,
				1.2,
				-19,
				1.3,
				-19
			]
		},
		{
			"Target": "Parameter",
			"Id": "ParamAngleZ",
			"Segments": [
				0,
				0,
				1,
				0.122,
				0,
				0.244,
				-14,
				0.367,
				-14,
				1,
				0.422,
				-14,
				0.478,
				-8,
				0.533,
				-8,
				1,
				0.622,
				-8,
				0.711,
				-8,
				0.8,
				-8,
				1,
				0.867,
				-8,
				0.933,
				-8,
				1,
				-8,
				1,
				1.1,
				-8,
				1.2,
				-15,
				1.3,
				-15
			]
		},
		{
			"Target": "Parameter",
			"Id": "ParamEyeLOpen",
			"Segments": [
				0,
				1,
				1,
				0.044,
				1,
				0.089,
				0,
				0.133,
				0,
				1,
				0.156,
				0,
				0.178,
				0,
				0.2,
				0,
				1,
				0.256,
				0,
				0.311,
				1,
				0.367,
				1,
				1,
				0.422,
				1,
				0.478,
				1,
				0.533,
				1,
				1,
				0.622,
				1,
				0.711,
				1,
				0.8,
				1,
				1,
				0.867,
				1,
				0.933,
				0,
				1,
				0,
				1,
				1.1,
				0,
				1.2,
				0.8,
				1.3,
				0.8
			]
		},
		{
			"Target": "Parameter",
			"Id": "ParamEyeLSmile",
			"Segments": [
				0,
				0,
				1,
				0.122,
				0,
				0.244,
				0,
				0.367,
				0,
				1,
				0.422,
				0,
				0.478,
				0,
				0.533,
				0,
				1,
				0.622,
				0,
				0.711,
				0,
				0.8,
				0,
				1,
				0.867,
				0,
				0.933,
				0,
				1,
				0,
				1,
				1.1,
				0,
				1.2,
				0,
				1.3,
				0
			]
		},
		{
			"Target": "Parameter",
			"Id": "ParamEyeLForm",
			"Segments": [
				0,
				0,
				1,
				0.122,
				0,
				0.244,
				1,
				0.367,
				1,
				1,
				0.422,
				1,
				0.478,
				1,
				0.533,
				1,
				1,
				0.622,
				1,
				0.711,
				1,
				0.8,
				1,
				1,
				0.867,
				1,
				0.933,
				1,
				1,
				1,
				1,
				1.1,
				1,
				1.2,
				1,
				1.3,
				1
			]
		},
		{
			"Target": "Parameter",
			"Id": "ParamEyeROpen",
			"Segments": [
				0,
				1,
				1,
				0.044,
				1,
				0.089,
				0,
				0.133,
				0,
				1,
				0.156,
				0,
				0.178,
				0,
				0.2,
				0,
				1,
				0.256,
				0,
				0.311,
				1,
				0.367,
				1,
				1,
				0.422,
				1,
				0.478,
				1,
				0.533,
				1,
				1,
				0.622,
				1,
				0.711,
				1,
				0.8,
				1,
				1,
				0.867,
				1,
				0.933,
				0,
				1,
				0,
				1,
				1.1,
				0,
				1.2,
				0.8,
				1.3,
				0.8
			]
		},
		{
			"Target": "Parameter",
			"Id": "ParamEyeRSmile",
			"Segments": [
				0,
				0,
				1,
				0.122,
				0,
				0.244,
				0,
				0.367,
				0,
				1,
				0.422,
				0,
				0.478,
				0,
				0.533,
				0,
				1,
				0.622,
				0,
				0.711,
				0,
				0.8,
				0,
				1,
				0.867,
				0,
				0.933,
				0,
				1,
				0,
				1,
				1.1,
				0,
				1.2,
				0,
				1.3,
				0
			]
		},
		{
			"Target": "Parameter",
			"Id": "ParamEyeRForm",
			"Segments": [
				0,
				0,
				1,
				0.122,
				0,
				0.244,
				1,
				0.367,
				1,
				1,
				0.422,
				1,
				0.478,
				1,
				0.533,
				1,
				1,
				0.622,
				1,
				0.711,
				1,
				0.8,
				1,
				1,
				0.867,
				1,
				0.933,
				1,
				1,
				1,
				1,
				1.1,
				1,
				1.2,
				1,
				1.3,
				1
			]
		},
		{
			"Target": "Parameter",
			"Id": "ParamEyeBallX",
			"Segments": [
				0,
				0,
				1,
				0.122,
				0,
				0.244,
				0,
				0.367,
				0,
				1,
				0.422,
				0,
				0.478,
				0,
				0.533,
				0,
				1,
				0.622,
				0,
				0.711,
				0,
				0.8,
				0,
				1,
				0.867,
				0,
				0.933,
				0,
				1,
				0,
				1,
				1.1,
				0,
				1.2,
				1,
				1.3,
				1
			]
		},
		{
			"Target": "Parameter",
			"Id": "ParamEyeBallY",
			"Segments": [
				0,
				0,
				1,
				0.122,
				0,
				0.244,
				0,
				0.367,
				0,
				1,
				0.422,
				0,
				0.478,
				0,
				0.533,
				0,
				1,
				0.622,
				0,
				0.711,
				0,
				0.8,
				0,
				1,
				0.867,
				0,
				0.933,
				0,
				1,
				0,
				1,
				1.1,
				0,
				1.2,
				0,
				1.3,
				0
			]
		},
		{
			"Target": "Parameter",
			"Id": "ParamBrowLX",
			"Segments": [
				0,
				0,
				1,
				0.122,
				0,
				0.244,
				-0.4,
				0.367,
				-0.4,
				1,
				0.422,
				-0.4,
				0.478,
				-0.4,
				0.533,
				-0.4,
				1,
				0.622,
				-0.4,
				0.711,
				-0.4,
				0.8,
				-0.4,
				1,
				0.867,
				-0.4,
				0.933,
				-0.4,
				1,
				-0.4,
				1,
				1.1,
				-0.4,
				1.2,
				-0.4,
				1.3,
				-0.4
			]
		},
		{
			"Target": "Parameter",
			"Id": "ParamBrowLY",
			"Segments": [
				0,
				0,
				1,
				0.122,
				0,
				0.244,
				0,
				0.367,
				0,
				1,
				0.422,
				0,
				0.478,
				0,
				0.533,
				0,
				1,
				0.622,
				0,
				0.711,
				0,
				0.8,
				0,
				1,
				0.867,
				0,
				0.933,
				0,
				1,
				0,
				1,
				1.1,
				0,
				1.2,
				0,
				1.3,
				0
			]
		},
		{
			"Target": "Parameter",
			"Id": "ParamBrowRX",
			"Segments": [
				0,
				0,
				1,
				0.122,
				0,
				0.244,
				-0.1,
				0.367,
				-0.1,
				1,
				0.422,
				-0.1,
				0.478,
				-0.1,
				0.533,
				-0.1,
				1,
				0.622,
				-0.1,
				0.711,
				-0.1,
				0.8,
				-0.1,
				1,
				0.867,
				-0.1,
				0.933,
				-0.1,
				1,
				-0.1,
				1,
				1.1,
				-0.1,
				1.2,
				-0.1,
				1.3,
				-0.1
			]
		},
		{
			"Target": "Parameter",
			"Id": "ParamBrowRY",
			"Segments": [
				0,
				0,
				1,
				0.122,
				0,
				0.244,
				-0.1,
				0.367,
				-0.1,
				1,
				0.422,
				-0.1,
				0.478,
				-0.1,
				0.533,
				-0.1,
				1,
				0.622,
				-0.1,
				0.711,
				-0.1,
				0.8,
				-0.1,
				1,
				0.867,
				-0.1,
				0.933,
				-0.1,
				1,
				-0.1,
				1,
				1.1,
				-0.1,
				1.2,
				-0.1,
				1.3,
				-0.1
			]
		},
		{
			"Target": "Parameter",
			"Id": "ParamBrowLAngle",
			"Segments": [
				0,
				0,
				1,
				0.122,
				0,
				0.244,
				-0.1,
				0.367,
				-0.1,
				1,
				0.422,
				-0.1,
				0.478,
				-0.1,
				0.533,
				-0.1,
				1,
				0.622,
				-0.1,
				0.711,
				-0.1,
				0.8,
				-0.1,
				1,
				0.867,
				-0.1,
				0.933,
				-0.1,
				1,
				-0.1,
				1,
				1.1,
				-0.1,
				1.2,
				-0.1,
				1.3,
				-0.1
			]
		},
		{
			"Target": "Parameter",
			"Id": "ParamBrowRAngle",
			"Segments": [
				0,
				0,
				1,
				0.122,
				0,
				0.244,
				0.1,
				0.367,
				0.1,
				1,
				0.422,
				0.1,
				0.478,
				0.1,
				0.533,
				0.1,
				1,
				0.622,
				0.1,
				0.711,
				0.1,
				0.8,
				0.1,
				1,
				0.867,
				0.1,
				0.933,
				0.1,
				1,
				0.1,
				1,
				1.1,
				0.1,
				1.2,
				0.1,
				1.3,
				0.1
			]
		},
		{
			"Target": "Parameter",
			"Id": "ParamBrowLForm",
			"Segments": [
				0,
				0,
				1,
				0.122,
				0,
				0.244,
				-0.5,
				0.367,
				-0.5,
				1,
				0.422,
				-0.5,
				0.478,
				-0.5,
				0.533,
				-0.5,
				1,
				0.622,
				-0.5,
				0.711,
				-0.5,
				0.8,
				-0.5,
				1,
				0.867,
				-0.5,
				0.933,
				-0.5,
				1,
				-0.5,
				1,
				1.1,
				-0.5,
				1.2,
				-0.5,
				1.3,
				-0.5
			]
		},
		{
			"Target": "Parameter",
			"Id": "ParamBrowLShapeMemory",
			"Segments": [
				0,
				0,
				1,
				0.122,
				0,
				0.244,
				0,
				0.367,
				0,
				1,
				0.422,
				0,
				0.478,
				0,
				0.533,
				0,
				1,
				0.622,
				0,
				0.711,
				0,
				0.8,
				0,
				1,
				0.867,
				0,
				0.933,
				0,
				1,
				0,
				1,
				1.1,
				0,
				1.2,
				0,
				1.3,
				0
			]
		},
		{
			"Target": "Parameter",
			"Id": "ParamBrowRForm",
			"Segments": [
				0,
				0,
				1,
				0.122,
				0,
				0.244,
				-0.5,
				0.367,
				-0.5,
				1,
				0.422,
				-0.5,
				0.478,
				-0.5,
				0.533,
				-0.5,
				1,
				0.622,
				-0.5,
				0.711,
				-0.5,
				0.8,
				-0.5,
				1,
				0.867,
				-0.5,
				0.933,
				-0.5,
				1,
				-0.5,
				1,
				1.1,
				-0.5,
				1.2,
				-0.5,
				1.3,
				-0.5
			]
		},
		{
			"Target": "Parameter",
			"Id": "ParamBrowRShapeMemory",
			"Segments": [
				0,
				0,
				1,
				0.122,
				0,
				0.244,
				0,
				0.367,
				0,
				1,
				0.422,
				0,
				0.478,
				0,
				0.533,
				0,
				1,
				0.622,
				0,
				0.711,
				0,
				0.8,
				0,
				1,
				0.867,
				0,
				0.933,
				0,
				1,
				0,
				1,
				1.1,
				0,
				1.2,
				0,
				1.3,
				0
			]
		},
		{
			"Target": "Parameter",
			"Id": "ParamMouthForm",
			"Segments": [
				0,
				0,
				1,
				0.122,
				0,
				0.244,
				-1,
				0.367,
				-1,
				1,
				0.422,
				-1,
				0.478,
				-1,
				0.533,
				-1,
				1,
				0.622,
				-1,
				0.711,
				-1,
				0.8,
				-1,
				1,
				0.867,
				-1,
				0.933,
				-1,
				1,
				-1,
				1,
				1.1,
				-1,
				1.2,
				-0.2,
				1.3,
				-0.2
			]
		},
		{
			"Target": "Parameter",
			"Id": "ParamMouthOpenY",
			"Segments": [
				0,
				0,
				1,
				0.122,
				0,
				0.244,
				0.7,
				0.367,
				0.7,
				1,
				0.422,
				0.7,
				0.478,
				0,
				0.533,
				0,
				1,
				0.622,
				0,
				0.711,
				0,
				0.8,
				0,
				1,
				0.867,
				0,
				0.933,
				0,
				1,
				0,
				1,
				1.1,
				0,
				1.2,
				0,
				1.3,
				0
			]
		},
		{
			"Target": "Parameter",
			"Id": "ParamCheek",
			"Segments": [
				0,
				0,
				1,
				0.122,
				0,
				0.244,
				0,
				0.367,
				0,
				1,
				0.422,
				0,
				0.478,
				0,
				0.533,
				0,
				1,
				0.622,
				0,
				0.711,
				0,
				0.8,
				0,
				1,
				0.867,
				0,
				0.933,
				0,
				1,
				0,
				1,
				1.1,
				0,
				1.2,
				0,
				1.3,
				0
			]
		},
		{
			"Target": "Parameter",
			"Id": "ParamBreath",
			"Segments": [
				0,
				0,
				1,
				0.122,
				0,
				0.244,
				0,
				0.367,
				0,
				1,
				0.422,
				0,
				0.478,
				0,
				0.533,
				0,
				1,
				0.622,
				0,
				0.711,
				0,
				0.8,
				0,
				1,
				0.867,
				0,
				0.933,
				0,
				1,
				0,
				1,
				1.1,
				0,
				1.2,
				0,
				1.3,
				0
			]
		},
		{
			"Target": "Parameter",
			"Id": "ParamBodyExpand",
			"Segments": [
				0,
				0,
				1,
				0.122,
				0,
				0.244,
				0,
				0.367,
				0,
				1,
				0.422,
				0,
				0.478,
				0,
				0.533,
				0,
				1,
				0.622,
				0,
				0.711,
				0,
				0.8,
				0,
				1,
				0.867,
				0,
				0.933,
				0,
				1,
				0,
				1,
				1.1,
				0,
				1.2,
				0,
				1.3,
				0
			]
		},
		{
			"Target": "Parameter",
			"Id": "ParamShoulderL",
			"Segments": [
				0,
				0,
				1,
				0.122,
				0,
				0.244,
				1,
				0.367,
				1,
				1,
				0.422,
				1,
				0.478,
				0.4,
				0.533,
				0.4,
				1,
				0.622,
				0.4,
				0.711,
				0.6,
				0.8,
				0.6,
				1,
				0.867,
				0.6,
				0.933,
				0.6,
				1,
				0.6,
				1,
				1.1,
				0.6,
				1.2,
				0.4,
				1.3,
				0.4
			]
		},
		{
			"Target": "Parameter",
			"Id": "ParamShoulderR",
			"Segments": [
				0,
				0,
				1,
				0.122,
				0,
				0.244,
				1,
				0.367,
				1,
				1,
				0.422,
				1,
				0.478,
				0.4,
				0.533,
				0.4,
				1,
				0.622,
				0.4,
				0.711,
				0.6,
				0.8,
				0.6,
				1,
				0.867,
				0.6,
				0.933,
				0.6,
				1,
				0.6,
				1,
				1.1,
				0.6,
				1.2,
				0.4,
				1.3,
				0.4
			]
		},
		{
			"Target": "Parameter",
			"Id": "ParamBodyAngleX",
			"Segments": [
				0,
				0,
				1,
				0.122,
				0,
				0.244,
				-1.256,
				0.367,
				-4,
				1,
				0.422,
				-5.247,
				0.478,
				-6,
				0.533,
				-6,
				1,
				0.622,
				-6,
				0.711,
				-6,
				0.8,
				-6,
				1,
				0.867,
				-6,
				0.933,
				-6,
				1,
				-6,
				1,
				1.1,
				-6,
				1.2,
				-5,
				1.3,
				-5
			]
		},
		{
			"Target": "Parameter",
			"Id": "ParamBodyAngleY",
			"Segments": [
				0,
				0,
				1,
				0.122,
				0,
				0.244,
				2,
				0.367,
				2,
				1,
				0.422,
				2,
				0.478,
				0,
				0.533,
				0,
				1,
				0.622,
				0,
				0.711,
				1,
				0.8,
				1,
				1,
				0.867,
				1,
				0.933,
				1,
				1,
				1,
				1,
				1.1,
				1,
				1.2,
				0,
				1.3,
				0
			]
		},
		{
			"Target": "Parameter",
			"Id": "ParamBodyAngleZ",
			"Segments": [
				0,
				0,
				1,
				0.122,
				0,
				0.244,
				0,
				0.367,
				0,
				1,
				0.422,
				0,
				0.478,
				0,
				0.533,
				0,
				1,
				0.622,
				0,
				0.711,
				0,
				0.8,
				0,
				1,
				0.867,
				0,
				0.933,
				0,
				1,
				0,
				1,
				1.1,
				0,
				1.2,
				0,
				1.3,
				0
			]
		},
		{
			"Target": "Parameter",
			"Id": "ParamArmChange1",
			"Segments": [
				0,
				0.3,
				1,
				0.122,
				0.3,
				0.244,
				-0.3,
				0.367,
				-0.3,
				1,
				0.422,
				-0.3,
				0.478,
				-0.3,
				0.533,
				-0.3,
				1,
				0.622,
				-0.3,
				0.711,
				-0.3,
				0.8,
				-0.3,
				1,
				0.867,
				-0.3,
				0.933,
				-0.3,
				1,
				-0.3,
				1,
				1.1,
				-0.3,
				1.2,
				-0.3,
				1.3,
				-0.3
			]
		},
		{
			"Target": "Parameter",
			"Id": "ParamArmChange2",
			"Segments": [
				0,
				-1,
				1,
				0.122,
				-1,
				0.244,
				-1,
				0.367,
				-1,
				1,
				0.422,
				-1,
				0.478,
				-1,
				0.533,
				-1,
				1,
				0.622,
				-1,
				0.711,
				-1,
				0.8,
				-1,
				1,
				0.867,
				-1,
				0.933,
				-1,
				1,
				-1,
				1,
				1.1,
				-1,
				1.2,
				-1,
				1.3,
				-1
			]
		},
		{
			"Target": "Parameter",
			"Id": "ParamArmAngleL01",
			"Segments": [
				0,
				0,
				1,
				0.122,
				0,
				0.244,
				-0.6,
				0.367,
				-0.6,
				1,
				0.422,
				-0.6,
				0.478,
				0,
				0.533,
				0,
				1,
				0.622,
				0,
				0.711,
				0,
				0.8,
				0,
				1,
				0.867,
				0,
				0.933,
				0,
				1,
				0,
				1,
				1.1,
				0,
				1.2,
				0,
				1.3,
				0
			]
		},
		{
			"Target": "Parameter",
			"Id": "ParamArmAngleL02",
			"Segments": [
				0,
				1,
				1,
				0.122,
				1,
				0.244,
				0,
				0.367,
				0,
				1,
				0.422,
				0,
				0.478,
				0,
				0.533,
				0,
				1,
				0.622,
				0,
				0.711,
				0,
				0.8,
				0,
				1,
				0.867,
				0,
				0.933,
				0,
				1,
				0,
				1,
				1.1,
				0,
				1.2,
				0,
				1.3,
				0
			]
		},
		{
			"Target": "Parameter",
			"Id": "ParamArmAngleL03",
			"Segments": [
				0,
				0,
				1,
				0.122,
				0,
				0.244,
				0,
				0.367,
				0,
				1,
				0.422,
				0,
				0.478,
				0,
				0.533,
				0,
				1,
				0.622,
				0,
				0.711,
				0,
				0.8,
				0,
				1,
				0.867,
				0,
				0.933,
				0,
				1,
				0,
				1,
				1.1,
				0,
				1.2,
				0,
				1.3,
				0
			]
		},
		{
			"Target": "Parameter",
			"Id": "ParamArmAngleL04",
			"Segments": [
				0,
				0,
				1,
				0.122,
				0,
				0.244,
				0,
				0.367,
				0,
				1,
				0.422,
				0,
				0.478,
				0,
				0.533,
				0,
				1,
				0.622,
				0,
				0.711,
				0,
				0.8,
				0,
				1,
				0.867,
				0,
				0.933,
				0,
				1,
				0,
				1,
				1.1,
				0,
				1.2,
				0,
				1.3,
				0
			]
		},
		{
			"Target": "Parameter",
			"Id": "ParamArmAngleR01_04",
			"Segments": [
				0,
				0,
				1,
				0.122,
				0,
				0.244,
				1,
				0.367,
				1,
				1,
				0.422,
				1,
				0.478,
				0,
				0.533,
				0,
				1,
				0.622,
				0,
				0.711,
				0,
				0.8,
				0,
				1,
				0.867,
				0,
				0.933,
				0,
				1,
				0,
				1,
				1.1,
				0,
				1.2,
				0,
				1.3,
				0
			]
		},
		{
			"Target": "Parameter",
			"Id": "ParamArmAngleR02",
			"Segments": [
				0,
				-1,
				1,
				0.122,
				-1,
				0.244,
				0,
				0.367,
				0,
				1,
				0.422,
				0,
				0.478,
				0,
				0.533,
				0,
				1,
				0.622,
				0,
				0.711,
				0,
				0.8,
				0,
				1,
				0.867,
				0,
				0.933,
				0,
				1,
				0,
				1,
				1.1,
				0,
				1.2,
				0,
				1.3,
				0
			]
		},
		{
			"Target": "Parameter",
			"Id": "ParamArmAngleR03",
			"Segments": [
				0,
				0,
				1,
				0.122,
				0,
				0.244,
				0,
				0.367,
				0,
				1,
				0.422,
				0,
				0.478,
				0,
				0.533,
				0,
				1,
				0.622,
				0,
				0.711,
				0,
				0.8,
				0,
				1,
				0.867,
				0,
				0.933,
				0,
				1,
				0,
				1,
				1.1,
				0,
				1.2,
				0,
				1.3,
				0
			]
		},
		{
			"Target": "Parameter",
			"Id": "ParamHairFront",
			"Segments": [
				0,
				0,
				1,
				0.122,
				0,
				0.244,
				0,
				0.367,
				0,
				1,
				0.422,
				0,
				0.478,
				0,
				0.533,
				0,
				1,
				0.622,
				0,
				0.711,
				0,
				0.8,
				0,
				1,
				0.867,
				0,
				0.933,
				0,
				1,
				0,
				1,
				1.1,
				0,
				1.2,
				0,
				1.3,
				0
			]
		},
		{
			"Target": "Parameter",
			"Id": "ParamHairSide",
			"Segments": [
				0,
				0,
				1,
				0.122,
				0,
				0.244,
				0,
				0.367,
				0,
				1,
				0.422,
				0,
				0.478,
				0,
				0.533,
				0,
				1,
				0.622,
				0,
				0.711,
				0,
				0.8,
				0,
				1,
				0.867,
				0,
				0.933,
				0,
				1,
				0,
				1,
				1.1,
				0,
				1.2,
				0,
				1.3,
				0
			]
		},
		{
			"Target": "Parameter",
			"Id": "ParamHairBack",
			"Segments": [
				0,
				0,
				1,
				0.122,
				0,
				0.244,
				0,
				0.367,
				0,
				1,
				0.422,
				0,
				0.478,
				0,
				0.533,
				0,
				1,
				0.622,
				0,
				0.711,
				0,
				0.8,
				0,
				1,
				0.867,
				0,
				0.933,
				0,
				1,
				0,
				1,
				1.1,
				0,
				1.2,
				0,
				1.3,
				0
			]
		},
		{
			"Target": "Parameter",
			"Id": "ParamMuffler",
			"Segments": [
				0,
				0,
				1,
				0.122,
				0,
				0.244,
				0,
				0.367,
				0,
				1,
				0.422,
				0,
				0.478,
				0,
				0.533,
				0,
				1,
				0.622,
				0,
				0.711,
				0,
				0.8,
				0,
				1,
				0.867,
				0,
				0.933,
				0,
				1,
				0,
				1,
				1.1,
				0,
				1.2,
				0,
				1.3,
				0
			]
		},
		{
			"Target": "Parameter",
			"Id": "ParamCardigan",
			"Segments": [
				0,
				0,
				1,
				0.122,
				0,
				0.244,
				0,
				0.367,
				0,
				1,
				0.422,
				0,
				0.478,
				0,
				0.533,
				0,
				1,
				0.622,
				0,
				0.711,
				0,
				0.8,
				0,
				1,
				0.867,
				0,
				0.933,
				0,
				1,
				0,
				1,
				1.1,
				0,
				1.2,
				0,
				1.3,
				0
			]
		},
		{
			"Target": "PartOpacity",
			"Id": "__RootPart__",
			"Segments": [
				0,
				1,
				2,
				0.167,
				1,
				0,
				1.3,
				1
			]
		},
		{
			"Target": "PartOpacity",
			"Id": "Part",
			"Segments": [
				0,
				1,
				0,
				1.3,
				1
			]
		},
		{
			"Target": "PartOpacity",
			"Id": "Part2",
			"Segments": [
				0,
				1,
				0,
				1.3,
				1
			]
		},
		{
			"Target": "PartOpacity",
			"Id": "Part3",
			"Segments": [
				0,
				1,
				0,
				1.3,
				1
			]
		},
		{
			"Target": "PartOpacity",
			"Id": "Core",
			"Segments": [
				0,
				1,
				0,
				1.3,
				1
			]
		},
		{
			"Target": "PartOpacity",
			"Id": "Part4",
			"Segments": [
				0,
				1,
				0,
				1.3,
				1
			]
		},
		{
			"Target": "PartOpacity",
			"Id": "Part34",
			"Segments": [
				0,
				1,
				0,
				1.3,
				1
			]
		},
		{
			"Target": "PartOpacity",
			"Id": "Part35",
			"Segments": [
				0,
				1,
				0,
				1.3,
				1
			]
		},
		{
			"Target": "PartOpacity",
			"Id": "Part5",
			"Segments": [
				0,
				1,
				0,
				1.3,
				1
			]
		},
		{
			"Target": "PartOpacity",
			"Id": "Part6",
			"Segments": [
				0,
				1,
				0,
				1.3,
				1
			]
		},
		{
			"Target": "PartOpacity",
			"Id": "Part7",
			"Segments": [
				0,
				1,
				0,
				1.3,
				1
			]
		},
		{
			"Target": "PartOpacity",
			"Id": "Part8",
			"Segments": [
				0,
				1,
				0,
				1.3,
				1
			]
		},
		{
			"Target": "PartOpacity",
			"Id": "Part9",
			"Segments": [
				0,
				1,
				0,
				1.3,
				1
			]
		},
		{
			"Target": "PartOpacity",
			"Id": "Part10",
			"Segments": [
				0,
				1,
				0,
				1.3,
				1
			]
		},
		{
			"Target": "PartOpacity",
			"Id": "Part11",
			"Segments": [
				0,
				1,
				0,
				1.3,
				1
			]
		},
		{
			"Target": "PartOpacity",
			"Id": "Part12",
			"Segments": [
				0,
				1,
				0,
				1.3,
				1
			]
		},
		{
			"Target": "PartOpacity",
			"Id": "Part13",
			"Segments": [
				0,
				1,
				0,
				1.3,
				1
			]
		},
		{
			"Target": "PartOpacity",
			"Id": "Part28",
			"Segments": [
				0,
				1,
				0,
				1.3,
				1
			]
		},
		{
			"Target": "PartOpacity",
			"Id": "Part14",
			"Segments": [
				0,
				1,
				0,
				1.3,
				1
			]
		},
		{
			"Target": "PartOpacity",
			"Id": "Part15",
			"Segments": [
				0,
				1,
				0,
				1.3,
				1
			]
		},
		{
			"Target": "PartOpacity",
			"Id": "Part16",
			"Segments": [
				0,
				1,
				0,
				1.3,
				1
			]
		},
		{
			"Target": "PartOpacity",
			"Id": "Part17",
			"Segments": [
				0,
				1,
				0,
				1.3,
				1
			]
		},
		{
			"Target": "PartOpacity",
			"Id": "Part18",
			"Segments": [
				0,
				1,
				0,
				1.3,
				1
			]
		},
		{
			"Target": "PartOpacity",
			"Id": "Part19",
			"Segments": [
				0,
				1,
				0,
				1.3,
				1
			]
		},
		{
			"Target": "PartOpacity",
			"Id": "Part20",
			"Segments": [
				0,
				1,
				0,
				1.3,
				1
			]
		},
		{
			"Target": "PartOpacity",
			"Id": "Part29",
			"Segments": [
				0,
				1,
				0,
				1.3,
				1
			]
		},
		{
			"Target": "PartOpacity",
			"Id": "Part37",
			"Segments": [
				0,
				1,
				0,
				1.3,
				1
			]
		},
		{
			"Target": "PartOpacity",
			"Id": "Part36",
			"Segments": [
				0,
				1,
				0,
				1.3,
				1
			]
		},
		{
			"Target": "PartOpacity",
			"Id": "Part38",
			"Segments": [
				0,
				1,
				0,
				1.3,
				1
			]
		},
		{
			"Target": "PartOpacity",
			"Id": "Part39",
			"Segments": [
				0,
				1,
				0,
				1.3,
				1
			]
		},
		{
			"Target": "PartOpacity",
			"Id": "Part40",
			"Segments": [
				0,
				1,
				0,
				1.3,
				1
			]
		},
		{
			"Target": "PartOpacity",
			"Id": "Part21",
			"Segments": [
				0,
				1,
				0,
				1.3,
				1
			]
		},
		{
			"Target": "PartOpacity",
			"Id": "Part22",
			"Segments": [
				0,
				1,
				0,
				1.3,
				1
			]
		},
		{
			"Target": "PartOpacity",
			"Id": "Part23",
			"Segments": [
				0,
				1,
				0,
				1.3,
				1
			]
		},
		{
			"Target": "PartOpacity",
			"Id": "Part41",
			"Segments": [
				0,
				1,
				0,
				1.3,
				1
			]
		},
		{
			"Target": "PartOpacity",
			"Id": "Part24",
			"Segments": [
				0,
				1,
				0,
				1.3,
				1
			]
		},
		{
			"Target": "PartOpacity",
			"Id": "Part30",
			"Segments": [
				0,
				1,
				0,
				1.3,
				1
			]
		},
		{
			"Target": "PartOpacity",
			"Id": "Part42",
			"Segments": [
				0,
				1,
				0,
				1.3,
				1
			]
		},
		{
			"Target": "PartOpacity",
			"Id": "Part25",
			"Segments": [
				0,
				1,
				0,
				1.3,
				1
			]
		},
		{
			"Target": "PartOpacity",
			"Id": "Part26",
			"Segments": [
				0,
				1,
				0,
				1.3,
				1
			]
		},
		{
			"Target": "PartOpacity",
			"Id": "Part27",
			"Segments": [
				0,
				1,
				0,
				1.3,
				1
			]
		},
		{
			"Target": "PartOpacity",
			"Id": "Part31",
			"Segments": [
				0,
				1,
				0,
				1.3,
				1
			]
		},
		{
			"Target": "PartOpacity",
			"Id": "Part32",
			"Segments": [
				0,
				1,
				0,
				1.3,
				1
			]
		},
		{
			"Target": "PartOpacity",
			"Id": "Part33",
			"Segments": [
				0,
				1,
				0,
				1.3,
				1
			]
		}
	]
}