{
	"Version": 3,
	"Meta": {
		"Duration": 4,
		"Fps": 30.0,
		"Loop": true,
		"AreBeziersRestricted": true,
		"CurveCount": 89,
		"TotalSegmentCount": 107,
		"TotalPointCount": 320,
		"UserDataCount": 0,
		"TotalUserDataSize": 0
	},
	"Curves": [
		{
			"Target": "Parameter",
			"Id": "ParamAngleX",
			"Segments": [
				0,
				-21,
				1,
				1.333,
				-21,
				3.078,
				-21,
				4,
				-21
			]
		},
		{
			"Target": "Parameter",
			"Id": "ParamAngleY",
			"Segments": [
				0,
				-19,
				1,
				1.333,
				-19,
				3.078,
				-19,
				4,
				-19
			]
		},
		{
			"Target": "Parameter",
			"Id": "ParamAngleZ",
			"Segments": [
				0,
				-17,
				1,
				1.333,
				-17,
				3.078,
				-17,
				4,
				-17
			]
		},
		{
			"Target": "Parameter",
			"Id": "ParamEyeLOpen",
			"Segments": [
				0,
				1,
				1,
				0.356,
				1,
				0.711,
				1,
				1.067,
				1,
				1,
				1.1,
				1,
				1.133,
				0,
				1.167,
				0,
				1,
				1.178,
				0,
				1.189,
				0,
				1.2,
				0,
				1,
				1.278,
				0,
				1.356,
				1,
				1.433,
				1,
				1,
				1.944,
				1,
				2.456,
				1,
				2.967,
				1,
				1,
				3,
				1,
				3.033,
				0,
				3.067,
				0,
				1,
				3.078,
				0,
				3.089,
				0,
				3.1,
				0,
				1,
				3.178,
				0,
				3.256,
				1,
				3.333,
				1,
				1,
				3.556,
				1,
				3.778,
				1,
				4,
				1
			]
		},
		{
			"Target": "Parameter",
			"Id": "ParamEyeLSmile",
			"Segments": [
				0,
				0,
				1,
				1.333,
				0,
				2.667,
				0,
				4,
				0
			]
		},
		{
			"Target": "Parameter",
			"Id": "ParamEyeLForm",
			"Segments": [
				0,
				-1,
				1,
				1.333,
				-1,
				2.667,
				-1,
				4,
				-1
			]
		},
		{
			"Target": "Parameter",
			"Id": "ParamEyeROpen",
			"Segments": [
				0,
				1,
				1,
				0.356,
				1,
				0.711,
				1,
				1.067,
				1,
				1,
				1.1,
				1,
				1.133,
				0,
				1.167,
				0,
				1,
				1.178,
				0,
				1.189,
				0,
				1.2,
				0,
				1,
				1.278,
				0,
				1.356,
				1,
				1.433,
				1,
				1,
				1.944,
				1,
				2.456,
				1,
				2.967,
				1,
				1,
				3,
				1,
				3.033,
				0,
				3.067,
				0,
				1,
				3.078,
				0,
				3.089,
				0,
				3.1,
				0,
				1,
				3.178,
				0,
				3.256,
				1,
				3.333,
				1,
				1,
				3.556,
				1,
				3.778,
				1,
				4,
				1
			]
		},
		{
			"Target": "Parameter",
			"Id": "ParamEyeRSmile",
			"Segments": [
				0,
				0,
				1,
				1.333,
				0,
				2.667,
				0,
				4,
				0
			]
		},
		{
			"Target": "Parameter",
			"Id": "ParamEyeRForm",
			"Segments": [
				0,
				-1,
				1,
				1.333,
				-1,
				2.667,
				-1,
				4,
				-1
			]
		},
		{
			"Target": "Parameter",
			"Id": "ParamEyeBallX",
			"Segments": [
				0,
				-0.6,
				1,
				1.333,
				-0.6,
				2.667,
				-0.6,
				4,
				-0.6
			]
		},
		{
			"Target": "Parameter",
			"Id": "ParamEyeBallY",
			"Segments": [
				0,
				-0.4,
				1,
				1.333,
				-0.4,
				2.667,
				-0.4,
				4,
				-0.4
			]
		},
		{
			"Target": "Parameter",
			"Id": "ParamBrowLX",
			"Segments": [
				0,
				0,
				1,
				1.333,
				0,
				2.667,
				0,
				4,
				0
			]
		},
		{
			"Target": "Parameter",
			"Id": "ParamBrowLY",
			"Segments": [
				0,
				0,
				1,
				1.333,
				0,
				2.667,
				0,
				4,
				0
			]
		},
		{
			"Target": "Parameter",
			"Id": "ParamBrowRX",
			"Segments": [
				0,
				0,
				1,
				1.333,
				0,
				2.667,
				0,
				4,
				0
			]
		},
		{
			"Target": "Parameter",
			"Id": "ParamBrowRY",
			"Segments": [
				0,
				0,
				1,
				1.333,
				0,
				2.667,
				0,
				4,
				0
			]
		},
		{
			"Target": "Parameter",
			"Id": "ParamBrowLAngle",
			"Segments": [
				0,
				0,
				1,
				1.333,
				0,
				2.667,
				0,
				4,
				0
			]
		},
		{
			"Target": "Parameter",
			"Id": "ParamBrowRAngle",
			"Segments": [
				0,
				0,
				1,
				1.333,
				0,
				2.667,
				0,
				4,
				0
			]
		},
		{
			"Target": "Parameter",
			"Id": "ParamBrowLForm",
			"Segments": [
				0,
				-1,
				1,
				1.333,
				-1,
				2.667,
				-1,
				4,
				-1
			]
		},
		{
			"Target": "Parameter",
			"Id": "ParamBrowLShapeMemory",
			"Segments": [
				0,
				0,
				1,
				1.333,
				0,
				2.667,
				0,
				4,
				0
			]
		},
		{
			"Target": "Parameter",
			"Id": "ParamBrowRForm",
			"Segments": [
				0,
				-1,
				1,
				1.333,
				-1,
				2.667,
				-1,
				4,
				-1
			]
		},
		{
			"Target": "Parameter",
			"Id": "ParamBrowRShapeMemory",
			"Segments": [
				0,
				0,
				1,
				1.333,
				0,
				2.667,
				0,
				4,
				0
			]
		},
		{
			"Target": "Parameter",
			"Id": "ParamMouthForm",
			"Segments": [
				0,
				-0.3,
				1,
				1.333,
				-0.3,
				2.667,
				-0.3,
				4,
				-0.3
			]
		},
		{
			"Target": "Parameter",
			"Id": "ParamMouthOpenY",
			"Segments": [
				0,
				0,
				1,
				1.333,
				0,
				2.667,
				0,
				4,
				0
			]
		},
		{
			"Target": "Parameter",
			"Id": "ParamCheek",
			"Segments": [
				0,
				0,
				1,
				1.333,
				0,
				2.667,
				0,
				4,
				0
			]
		},
		{
			"Target": "Parameter",
			"Id": "ParamBreath",
			"Segments": [
				0,
				0,
				1,
				0.667,
				0,
				1.333,
				0.7,
				2,
				0.7,
				1,
				2.667,
				0.7,
				3.333,
				0,
				4,
				0
			]
		},
		{
			"Target": "Parameter",
			"Id": "ParamBodyExpand",
			"Segments": [
				0,
				0,
				1,
				1.333,
				0,
				2.667,
				0,
				4,
				0
			]
		},
		{
			"Target": "Parameter",
			"Id": "ParamShoulderL",
			"Segments": [
				0,
				-1,
				1,
				1.333,
				-1,
				2.667,
				-1,
				4,
				-1
			]
		},
		{
			"Target": "Parameter",
			"Id": "ParamShoulderR",
			"Segments": [
				0,
				-1,
				1,
				1.333,
				-1,
				2.667,
				-1,
				4,
				-1
			]
		},
		{
			"Target": "Parameter",
			"Id": "ParamBodyAngleX",
			"Segments": [
				0,
				-10,
				1,
				1.333,
				-10,
				2.667,
				-10,
				4,
				-10
			]
		},
		{
			"Target": "Parameter",
			"Id": "ParamBodyAngleY",
			"Segments": [
				0,
				-1,
				1,
				1.333,
				-1,
				2.667,
				-1,
				4,
				-1
			]
		},
		{
			"Target": "Parameter",
			"Id": "ParamBodyAngleZ",
			"Segments": [
				0,
				-1,
				1,
				1.333,
				-1,
				2.667,
				-1,
				4,
				-1
			]
		},
		{
			"Target": "Parameter",
			"Id": "ParamArmChange1",
			"Segments": [
				0,
				1,
				1,
				1.333,
				1,
				2.667,
				1,
				4,
				1
			]
		},
		{
			"Target": "Parameter",
			"Id": "ParamArmChange2",
			"Segments": [
				0,
				-1,
				1,
				1.333,
				-1,
				2.667,
				-1,
				4,
				-1
			]
		},
		{
			"Target": "Parameter",
			"Id": "ParamArmAngleL01",
			"Segments": [
				0,
				0,
				1,
				1.333,
				0,
				3.078,
				0,
				4,
				0
			]
		},
		{
			"Target": "Parameter",
			"Id": "ParamArmAngleL02",
			"Segments": [
				0,
				1,
				1,
				1.333,
				1,
				3.078,
				1,
				4,
				1
			]
		},
		{
			"Target": "Parameter",
			"Id": "ParamArmAngleL03",
			"Segments": [
				0,
				0,
				1,
				1.333,
				0,
				3.078,
				0,
				4,
				0
			]
		},
		{
			"Target": "Parameter",
			"Id": "ParamArmAngleL04",
			"Segments": [
				0,
				-0.1,
				1,
				1.333,
				-0.1,
				3.078,
				-0.1,
				4,
				-0.1
			]
		},
		{
			"Target": "Parameter",
			"Id": "ParamArmAngleR01_04",
			"Segments": [
				0,
				0,
				1,
				1.333,
				0,
				3.078,
				0,
				4,
				0
			]
		},
		{
			"Target": "Parameter",
			"Id": "ParamArmAngleR02",
			"Segments": [
				0,
				-1,
				1,
				1.333,
				-1,
				3.078,
				-1,
				4,
				-1
			]
		},
		{
			"Target": "Parameter",
			"Id": "ParamArmAngleR03",
			"Segments": [
				0,
				0,
				1,
				1.333,
				0,
				3.078,
				0,
				4,
				0
			]
		},
		{
			"Target": "Parameter",
			"Id": "ParamHairFront",
			"Segments": [
				0,
				0,
				1,
				1.333,
				0,
				3.078,
				0,
				4,
				0
			]
		},
		{
			"Target": "Parameter",
			"Id": "ParamHairSide",
			"Segments": [
				0,
				0,
				1,
				1.333,
				0,
				3.078,
				0,
				4,
				0
			]
		},
		{
			"Target": "Parameter",
			"Id": "ParamHairBack",
			"Segments": [
				0,
				0,
				1,
				1.333,
				0,
				3.078,
				0,
				4,
				0
			]
		},
		{
			"Target": "Parameter",
			"Id": "ParamMuffler",
			"Segments": [
				0,
				0,
				1,
				1.333,
				0,
				3.078,
				0,
				4,
				0
			]
		},
		{
			"Target": "Parameter",
			"Id": "ParamCardigan",
			"Segments": [
				0,
				0,
				1,
				1.333,
				0,
				3.078,
				0,
				4,
				0
			]
		},
		{
			"Target": "PartOpacity",
			"Id": "__RootPart__",
			"Segments": [
				0,
				1,
				2,
				0.167,
				1,
				0,
				4,
				1
			]
		},
		{
			"Target": "PartOpacity",
			"Id": "Part",
			"Segments": [
				0,
				1,
				0,
				4,
				1
			]
		},
		{
			"Target": "PartOpacity",
			"Id": "Part2",
			"Segments": [
				0,
				1,
				0,
				4,
				1
			]
		},
		{
			"Target": "PartOpacity",
			"Id": "Part3",
			"Segments": [
				0,
				1,
				0,
				4,
				1
			]
		},
		{
			"Target": "PartOpacity",
			"Id": "Core",
			"Segments": [
				0,
				1,
				0,
				4,
				1
			]
		},
		{
			"Target": "PartOpacity",
			"Id": "Part4",
			"Segments": [
				0,
				1,
				0,
				4,
				1
			]
		},
		{
			"Target": "PartOpacity",
			"Id": "Part34",
			"Segments": [
				0,
				1,
				0,
				4,
				1
			]
		},
		{
			"Target": "PartOpacity",
			"Id": "Part35",
			"Segments": [
				0,
				1,
				0,
				4,
				1
			]
		},
		{
			"Target": "PartOpacity",
			"Id": "Part5",
			"Segments": [
				0,
				1,
				0,
				4,
				1
			]
		},
		{
			"Target": "PartOpacity",
			"Id": "Part6",
			"Segments": [
				0,
				1,
				0,
				4,
				1
			]
		},
		{
			"Target": "PartOpacity",
			"Id": "Part7",
			"Segments": [
				0,
				1,
				0,
				4,
				1
			]
		},
		{
			"Target": "PartOpacity",
			"Id": "Part8",
			"Segments": [
				0,
				1,
				0,
				4,
				1
			]
		},
		{
			"Target": "PartOpacity",
			"Id": "Part9",
			"Segments": [
				0,
				1,
				0,
				4,
				1
			]
		},
		{
			"Target": "PartOpacity",
			"Id": "Part10",
			"Segments": [
				0,
				1,
				0,
				4,
				1
			]
		},
		{
			"Target": "PartOpacity",
			"Id": "Part11",
			"Segments": [
				0,
				1,
				0,
				4,
				1
			]
		},
		{
			"Target": "PartOpacity",
			"Id": "Part12",
			"Segments": [
				0,
				1,
				0,
				4,
				1
			]
		},
		{
			"Target": "PartOpacity",
			"Id": "Part13",
			"Segments": [
				0,
				1,
				0,
				4,
				1
			]
		},
		{
			"Target": "PartOpacity",
			"Id": "Part28",
			"Segments": [
				0,
				1,
				0,
				4,
				1
			]
		},
		{
			"Target": "PartOpacity",
			"Id": "Part14",
			"Segments": [
				0,
				1,
				0,
				4,
				1
			]
		},
		{
			"Target": "PartOpacity",
			"Id": "Part15",
			"Segments": [
				0,
				1,
				0,
				4,
				1
			]
		},
		{
			"Target": "PartOpacity",
			"Id": "Part16",
			"Segments": [
				0,
				1,
				0,
				4,
				1
			]
		},
		{
			"Target": "PartOpacity",
			"Id": "Part17",
			"Segments": [
				0,
				1,
				0,
				4,
				1
			]
		},
		{
			"Target": "PartOpacity",
			"Id": "Part18",
			"Segments": [
				0,
				1,
				0,
				4,
				1
			]
		},
		{
			"Target": "PartOpacity",
			"Id": "Part19",
			"Segments": [
				0,
				1,
				0,
				4,
				1
			]
		},
		{
			"Target": "PartOpacity",
			"Id": "Part20",
			"Segments": [
				0,
				1,
				0,
				4,
				1
			]
		},
		{
			"Target": "PartOpacity",
			"Id": "Part29",
			"Segments": [
				0,
				1,
				0,
				4,
				1
			]
		},
		{
			"Target": "PartOpacity",
			"Id": "Part37",
			"Segments": [
				0,
				1,
				0,
				4,
				1
			]
		},
		{
			"Target": "PartOpacity",
			"Id": "Part36",
			"Segments": [
				0,
				1,
				0,
				4,
				1
			]
		},
		{
			"Target": "PartOpacity",
			"Id": "Part38",
			"Segments": [
				0,
				1,
				0,
				4,
				1
			]
		},
		{
			"Target": "PartOpacity",
			"Id": "Part39",
			"Segments": [
				0,
				1,
				0,
				4,
				1
			]
		},
		{
			"Target": "PartOpacity",
			"Id": "Part40",
			"Segments": [
				0,
				1,
				0,
				4,
				1
			]
		},
		{
			"Target": "PartOpacity",
			"Id": "Part21",
			"Segments": [
				0,
				1,
				0,
				4,
				1
			]
		},
		{
			"Target": "PartOpacity",
			"Id": "Part22",
			"Segments": [
				0,
				1,
				0,
				4,
				1
			]
		},
		{
			"Target": "PartOpacity",
			"Id": "Part23",
			"Segments": [
				0,
				1,
				0,
				4,
				1
			]
		},
		{
			"Target": "PartOpacity",
			"Id": "Part41",
			"Segments": [
				0,
				1,
				0,
				4,
				1
			]
		},
		{
			"Target": "PartOpacity",
			"Id": "Part24",
			"Segments": [
				0,
				1,
				0,
				4,
				1
			]
		},
		{
			"Target": "PartOpacity",
			"Id": "Part30",
			"Segments": [
				0,
				1,
				0,
				4,
				1
			]
		},
		{
			"Target": "PartOpacity",
			"Id": "Part42",
			"Segments": [
				0,
				1,
				0,
				4,
				1
			]
		},
		{
			"Target": "PartOpacity",
			"Id": "Part25",
			"Segments": [
				0,
				1,
				0,
				4,
				1
			]
		},
		{
			"Target": "PartOpacity",
			"Id": "Part26",
			"Segments": [
				0,
				1,
				0,
				4,
				1
			]
		},
		{
			"Target": "PartOpacity",
			"Id": "Part27",
			"Segments": [
				0,
				1,
				0,
				4,
				1
			]
		},
		{
			"Target": "PartOpacity",
			"Id": "Part31",
			"Segments": [
				0,
				1,
				0,
				4,
				1
			]
		},
		{
			"Target": "PartOpacity",
			"Id": "Part32",
			"Segments": [
				0,
				1,
				0,
				4,
				1
			]
		},
		{
			"Target": "PartOpacity",
			"Id": "Part33",
			"Segments": [
				0,
				1,
				0,
				4,
				1
			]
		}
	]
}